object:0
x:1,1
y:0,0
z:0,0
F_RGB:red
F_SHAPE:prism
object:1
x:1,1
y:1,1
z:0,0
F_RGB:green
F_SHAPE:cube
object:2
x:1,1
y:3,3
z:0,0
F_RGB:blue
F_SHAPE:cube
object:3
x:1,1
y:4,4
z:0,0
F_RGB:red
F_SHAPE:prism
object:4
x:3,3
y:1,1
z:0,0
F_RGB:red
F_SHAPE:cube
object:5
x:3,3
y:3,3
z:0,0
F_RGB:white
F_SHAPE:cube
object:6
x:3,3
y:3,3
z:1,1
F_RGB:red
F_SHAPE:prism
object:7
x:3,3
y:5,5
z:0,0
F_RGB:gray
F_SHAPE:cube
object:8
x:3,5
y:6,5
z:0,1
F_RGB:red
F_SHAPE:prism
object:9
x:5,5
y:1,1
z:0,0
F_RGB:yellow
F_SHAPE:cube
object:10
x:5,5
y:3,3
z:0,0
F_RGB:magenta
F_SHAPE:cube
object:11
x:5,5
y:5,5
z:0,0
F_RGB:cyan
F_SHAPE:cube
object:12
x:5,5
y:6,6
z:0,0
F_RGB:red
F_SHAPE:prism
object:13
x:6,6
y:1,1
z:0,0
F_RGB:red
F_SHAPE:prism
object:14
x:6,6
y:3,3
z:0,0
F_RGB:red
F_SHAPE:prism
object:gripper
x:3,5
y:7,5
z:7,7
