object:0
x:0,0
y:0,0
z:0,0
F_RGB:gray
F_SHAPE:cylinder
object:1
x:0,0
y:0,0
z:1,1
F_RGB:gray
F_SHAPE:cylinder
object:2
x:0,0
y:0,0
z:2,2
F_RGB:gray
F_SHAPE:cylinder
object:3
x:0,0
y:1,1
z:0,0
F_RGB:gray
F_SHAPE:cylinder
object:4
x:0,0
y:1,1
z:1,1
F_RGB:gray
F_SHAPE:cylinder
object:5
x:0,0
y:1,1
z:2,2
F_RGB:gray
F_SHAPE:cylinder
object:6
x:0,0
y:2,2
z:0,0
F_RGB:gray
F_SHAPE:cylinder
object:7
x:0,0
y:2,2
z:1,1
F_RGB:gray
F_SHAPE:cylinder
object:8
x:0,0
y:2,2
z:2,2
F_RGB:gray
F_SHAPE:cylinder
object:9
x:0,0
y:3,3
z:0,0
F_RGB:gray
F_SHAPE:cylinder
object:10
x:0,0
y:3,3
z:1,1
F_RGB:gray
F_SHAPE:cylinder
object:11
x:0,0
y:3,3
z:2,2
F_RGB:gray
F_SHAPE:cylinder
object:12
x:0,0
y:4,4
z:0,0
F_RGB:gray
F_SHAPE:cylinder
object:13
x:0,0
y:4,4
z:1,1
F_RGB:gray
F_SHAPE:cylinder
object:14
x:0,0
y:4,4
z:2,2
F_RGB:gray
F_SHAPE:cylinder
object:15
x:0,0
y:5,5
z:0,0
F_RGB:gray
F_SHAPE:cylinder
object:16
x:0,0
y:5,5
z:1,1
F_RGB:gray
F_SHAPE:cylinder
object:17
x:0,0
y:5,5
z:2,2
F_RGB:gray
F_SHAPE:cylinder
object:18
x:0,0
y:5,5
z:3,3
F_RGB:black
F_SHAPE:prism
object:19
x:0,0
y:6,6
z:0,0
F_RGB:gray
F_SHAPE:cylinder
object:20
x:0,0
y:6,6
z:1,1
F_RGB:gray
F_SHAPE:cylinder
object:21
x:0,0
y:6,6
z:2,2
F_RGB:gray
F_SHAPE:cylinder
object:22
x:0,0
y:7,7
z:0,0
F_RGB:gray
F_SHAPE:cylinder
object:23
x:0,0
y:7,7
z:1,1
F_RGB:gray
F_SHAPE:cylinder
object:24
x:0,0
y:7,7
z:2,2
F_RGB:gray
F_SHAPE:cylinder
object:25
x:1,1
y:0,0
z:0,0
F_RGB:gray
F_SHAPE:cylinder
object:26
x:1,1
y:0,0
z:1,1
F_RGB:gray
F_SHAPE:cylinder
object:27
x:1,1
y:1,1
z:0,0
F_RGB:gray
F_SHAPE:cylinder
object:28
x:1,1
y:1,1
z:1,1
F_RGB:gray
F_SHAPE:cylinder
object:29
x:1,1
y:2,2
z:0,0
F_RGB:gray
F_SHAPE:cylinder
object:30
x:1,1
y:2,2
z:1,1
F_RGB:gray
F_SHAPE:cylinder
object:31
x:1,1
y:3,3
z:0,0
F_RGB:gray
F_SHAPE:cylinder
object:32
x:1,1
y:3,3
z:1,1
F_RGB:gray
F_SHAPE:cylinder
object:33
x:1,1
y:4,4
z:0,0
F_RGB:gray
F_SHAPE:cylinder
object:34
x:1,1
y:4,4
z:1,1
F_RGB:gray
F_SHAPE:cylinder
object:35
x:1,1
y:5,5
z:0,0
F_RGB:gray
F_SHAPE:cylinder
object:36
x:1,1
y:5,5
z:1,1
F_RGB:gray
F_SHAPE:cylinder
object:37
x:1,1
y:6,6
z:0,0
F_RGB:gray
F_SHAPE:cylinder
object:38
x:1,1
y:6,6
z:1,1
F_RGB:gray
F_SHAPE:cylinder
object:39
x:1,1
y:7,7
z:0,0
F_RGB:gray
F_SHAPE:cylinder
object:40
x:1,1
y:7,7
z:1,1
F_RGB:gray
F_SHAPE:cylinder
object:41
x:2,2
y:0,0
z:0,0
F_RGB:gray
F_SHAPE:cylinder
object:42
x:2,2
y:0,0
z:1,1
F_RGB:gray
F_SHAPE:cylinder
object:43
x:2,2
y:1,1
z:0,0
F_RGB:gray
F_SHAPE:cylinder
object:44
x:2,2
y:1,1
z:1,1
F_RGB:gray
F_SHAPE:cylinder
object:45
x:2,2
y:2,2
z:0,0
F_RGB:gray
F_SHAPE:cylinder
object:46
x:2,2
y:2,2
z:1,1
F_RGB:gray
F_SHAPE:cylinder
object:47
x:2,2
y:3,3
z:0,0
F_RGB:gray
F_SHAPE:cylinder
object:48
x:2,2
y:3,3
z:1,1
F_RGB:gray
F_SHAPE:cylinder
object:49
x:2,2
y:4,4
z:0,0
F_RGB:gray
F_SHAPE:cylinder
object:50
x:2,2
y:4,4
z:1,1
F_RGB:gray
F_SHAPE:cylinder
object:51
x:2,2
y:5,5
z:0,0
F_RGB:gray
F_SHAPE:cylinder
object:52
x:2,2
y:5,5
z:1,1
F_RGB:gray
F_SHAPE:cylinder
object:53
x:2,2
y:6,6
z:0,0
F_RGB:gray
F_SHAPE:cylinder
object:54
x:2,2
y:6,6
z:1,1
F_RGB:gray
F_SHAPE:cylinder
object:55
x:2,2
y:7,7
z:0,0
F_RGB:gray
F_SHAPE:cylinder
object:56
x:2,2
y:7,7
z:1,1
F_RGB:gray
F_SHAPE:cylinder
object:57
x:3,3
y:0,0
z:0,0
F_RGB:gray
F_SHAPE:cylinder
object:58
x:3,3
y:1,1
z:0,0
F_RGB:gray
F_SHAPE:cylinder
object:59
x:3,3
y:2,2
z:0,0
F_RGB:gray
F_SHAPE:cylinder
object:60
x:3,3
y:3,3
z:0,0
F_RGB:gray
F_SHAPE:cylinder
object:61
x:3,3
y:3,3
z:1,1
F_RGB:black
F_SHAPE:prism
object:62
x:3,3
y:4,4
z:0,0
F_RGB:gray
F_SHAPE:cylinder
object:63
x:3,3
y:5,5
z:0,0
F_RGB:gray
F_SHAPE:cylinder
object:64
x:3,3
y:6,6
z:0,0
F_RGB:gray
F_SHAPE:cylinder
object:65
x:3,3
y:6,6
z:1,1
F_RGB:black
F_SHAPE:prism
object:66
x:3,3
y:7,7
z:0,0
F_RGB:gray
F_SHAPE:cylinder
object:67
x:6,6
y:1,1
z:0,0
F_RGB:yellow
F_SHAPE:prism
object:68
x:6,6
y:3,3
z:0,0
F_RGB:yellow
F_SHAPE:prism
object:69
x:6,3
y:4,7
z:0,1
F_RGB:blue
F_SHAPE:prism
object:70
x:6,6
y:5,5
z:0,0
F_RGB:yellow
F_SHAPE:prism
object:71
x:0,0
y:0,0
z:2,2
F_RGB:gray
F_SHAPE:tower
object:72
x:0,0
y:1,1
z:2,2
F_RGB:gray
F_SHAPE:tower
object:73
x:0,0
y:2,2
z:2,2
F_RGB:gray
F_SHAPE:tower
object:74
x:0,0
y:3,3
z:2,2
F_RGB:gray
F_SHAPE:tower
object:75
x:0,0
y:4,4
z:2,2
F_RGB:gray
F_SHAPE:tower
object:76
x:0,0
y:5,5
z:2,2
F_RGB:gray
F_SHAPE:tower
object:77
x:0,0
y:6,6
z:2,2
F_RGB:gray
F_SHAPE:tower
object:78
x:0,0
y:7,7
z:2,2
F_RGB:gray
F_SHAPE:tower
object:79
x:1,1
y:0,0
z:1,1
F_RGB:gray
F_SHAPE:tower
object:80
x:1,1
y:1,1
z:1,1
F_RGB:gray
F_SHAPE:tower
object:81
x:1,1
y:2,2
z:1,1
F_RGB:gray
F_SHAPE:tower
object:82
x:1,1
y:3,3
z:1,1
F_RGB:gray
F_SHAPE:tower
object:83
x:1,1
y:4,4
z:1,1
F_RGB:gray
F_SHAPE:tower
object:84
x:1,1
y:5,5
z:1,1
F_RGB:gray
F_SHAPE:tower
object:85
x:1,1
y:6,6
z:1,1
F_RGB:gray
F_SHAPE:tower
object:86
x:1,1
y:7,7
z:1,1
F_RGB:gray
F_SHAPE:tower
object:87
x:2,2
y:0,0
z:1,1
F_RGB:gray
F_SHAPE:tower
object:88
x:2,2
y:1,1
z:1,1
F_RGB:gray
F_SHAPE:tower
object:89
x:2,2
y:2,2
z:1,1
F_RGB:gray
F_SHAPE:tower
object:90
x:2,2
y:3,3
z:1,1
F_RGB:gray
F_SHAPE:tower
object:91
x:2,2
y:4,4
z:1,1
F_RGB:gray
F_SHAPE:tower
object:92
x:2,2
y:5,5
z:1,1
F_RGB:gray
F_SHAPE:tower
object:93
x:2,2
y:6,6
z:1,1
F_RGB:gray
F_SHAPE:tower
object:94
x:2,2
y:7,7
z:1,1
F_RGB:gray
F_SHAPE:tower
object:gripper
x:6,3
y:7,7
z:7,7
