object:0
x:1,1
y:5,5
z:0,0
F_RGB:magenta
F_SHAPE:prism
object:1
x:2,2
y:1,1
z:0,0
F_RGB:yellow
F_SHAPE:cylinder
object:2
x:3,3
y:3,3
z:0,0
F_RGB:yellow
F_SHAPE:prism
object:3
x:3,3
y:6,6
z:0,0
F_RGB:magenta
F_SHAPE:cylinder
object:4
x:5,5
y:7,7
z:4,0
F_RGB:green
F_SHAPE:prism
object:5
x:6,6
y:3,3
z:0,0
F_RGB:green
F_SHAPE:cylinder
object:6
x:6,6
y:3,3
z:1,1
F_RGB:black
F_SHAPE:cylinder
object:7
x:6,6
y:3,3
z:2,2
F_RGB:gray
F_SHAPE:prism
object:8
x:6,6
y:3,3
z:1,1
F_RGB:green-black
F_SHAPE:tower
object:gripper
x:5,3
y:7,5
z:4,4
