object:0
x:2,2
y:3,3
z:0,0
F_RGB:red
F_SHAPE:cylinder
object:1
x:2,6
y:3,5
z:1,0
F_RGB:blue
F_SHAPE:prism
object:2
x:2,2
y:5,5
z:0,0
F_RGB:red
F_SHAPE:cylinder
object:3
x:4,4
y:3,3
z:0,0
F_RGB:green
F_SHAPE:cylinder
object:4
x:4,4
y:5,5
z:0,0
F_RGB:green
F_SHAPE:cylinder
object:gripper
x:2,6
y:3,3
z:7,7
