object:0
x:2,2
y:3,3
z:0,0
F_RGB:red
F_SHAPE:cube
object:1
x:2,2
y:5,5
z:0,0
F_RGB:red
F_SHAPE:cube
object:2
x:4,4
y:3,3
z:0,0
F_RGB:green
F_SHAPE:cube
object:3
x:4,4
y:5,5
z:0,0
F_RGB:green
F_SHAPE:cube
object:4
x:6,2
y:5,5
z:0,1
F_RGB:blue
F_SHAPE:sphere
object:gripper
x:6,2
y:3,5
z:7,6
