object:0
x:0,0
y:0,0
z:0,0
F_RGB:gray
F_SHAPE:cube
object:1
x:0,0
y:0,0
z:1,1
F_RGB:gray
F_SHAPE:cube
object:2
x:0,0
y:0,0
z:2,2
F_RGB:gray
F_SHAPE:cube
object:3
x:0,0
y:1,1
z:0,0
F_RGB:yellow
F_SHAPE:cube
object:4
x:0,0
y:2,2
z:0,0
F_RGB:yellow
F_SHAPE:cube
object:5
x:0,0
y:3,3
z:0,0
F_RGB:yellow
F_SHAPE:cube
object:6
x:0,0
y:4,4
z:0,0
F_RGB:yellow
F_SHAPE:cube
object:7
x:0,0
y:5,5
z:0,0
F_RGB:yellow
F_SHAPE:cube
object:8
x:0,0
y:6,6
z:0,0
F_RGB:yellow
F_SHAPE:cube
object:9
x:0,0
y:7,7
z:0,0
F_RGB:yellow
F_SHAPE:cube
object:10
x:1,1
y:0,0
z:0,0
F_RGB:yellow
F_SHAPE:cube
object:11
x:1,1
y:1,1
z:0,0
F_RGB:yellow
F_SHAPE:cube
object:12
x:1,1
y:2,2
z:0,0
F_RGB:yellow
F_SHAPE:cube
object:13
x:1,1
y:3,3
z:0,0
F_RGB:yellow
F_SHAPE:cube
object:14
x:1,1
y:4,4
z:0,0
F_RGB:yellow
F_SHAPE:cube
object:15
x:1,1
y:5,5
z:0,0
F_RGB:yellow
F_SHAPE:cube
object:16
x:1,1
y:6,6
z:0,0
F_RGB:yellow
F_SHAPE:cube
object:17
x:1,1
y:7,7
z:0,0
F_RGB:yellow
F_SHAPE:cube
object:18
x:2,2
y:0,0
z:0,0
F_RGB:yellow
F_SHAPE:cube
object:19
x:2,2
y:1,1
z:0,0
F_RGB:yellow
F_SHAPE:cube
object:20
x:2,2
y:2,2
z:0,0
F_RGB:yellow
F_SHAPE:cube
object:21
x:2,2
y:3,3
z:0,0
F_RGB:green
F_SHAPE:cube
object:22
x:2,2
y:3,3
z:1,1
F_RGB:green
F_SHAPE:cube
object:23
x:2,2
y:3,3
z:2,2
F_RGB:green
F_SHAPE:cube
object:24
x:2,2
y:3,3
z:3,3
F_RGB:black
F_SHAPE:cube
object:25
x:2,2
y:3,3
z:4,4
F_RGB:magenta
F_SHAPE:prism
object:26
x:2,2
y:4,4
z:0,0
F_RGB:yellow
F_SHAPE:cube
object:27
x:2,2
y:5,5
z:0,0
F_RGB:yellow
F_SHAPE:cube
object:28
x:2,2
y:6,6
z:0,0
F_RGB:yellow
F_SHAPE:cube
object:29
x:2,2
y:7,7
z:0,0
F_RGB:yellow
F_SHAPE:cube
object:30
x:3,3
y:0,0
z:0,0
F_RGB:yellow
F_SHAPE:cube
object:31
x:3,3
y:1,1
z:0,0
F_RGB:gray
F_SHAPE:cube
object:32
x:3,3
y:1,1
z:1,1
F_RGB:gray
F_SHAPE:cube
object:33
x:3,3
y:1,1
z:2,2
F_RGB:gray
F_SHAPE:cube
object:34
x:3,3
y:2,2
z:0,0
F_RGB:yellow
F_SHAPE:cube
object:35
x:3,3
y:3,3
z:0,0
F_RGB:yellow
F_SHAPE:cube
object:36
x:3,3
y:4,4
z:0,0
F_RGB:yellow
F_SHAPE:cube
object:37
x:3,3
y:5,5
z:0,0
F_RGB:yellow
F_SHAPE:cube
object:38
x:3,3
y:6,6
z:0,0
F_RGB:blue
F_SHAPE:cube
object:39
x:3,3
y:6,6
z:1,1
F_RGB:blue
F_SHAPE:cube
object:40
x:3,3
y:6,6
z:2,2
F_RGB:blue
F_SHAPE:cube
object:41
x:3,3
y:6,6
z:3,3
F_RGB:black
F_SHAPE:cube
object:42
x:3,6
y:6,6
z:4,3
F_RGB:cyan
F_SHAPE:prism
object:43
x:3,3
y:7,7
z:0,0
F_RGB:yellow
F_SHAPE:cube
object:44
x:4,4
y:0,0
z:0,0
F_RGB:yellow
F_SHAPE:cube
object:45
x:4,4
y:1,1
z:0,0
F_RGB:yellow
F_SHAPE:cube
object:46
x:4,4
y:2,2
z:0,0
F_RGB:yellow
F_SHAPE:cube
object:47
x:4,4
y:3,3
z:0,0
F_RGB:yellow
F_SHAPE:cube
object:48
x:4,4
y:4,4
z:0,0
F_RGB:yellow
F_SHAPE:cube
object:49
x:4,4
y:5,5
z:0,0
F_RGB:yellow
F_SHAPE:cube
object:50
x:4,4
y:6,6
z:0,0
F_RGB:yellow
F_SHAPE:cube
object:51
x:4,4
y:7,7
z:0,0
F_RGB:yellow
F_SHAPE:cube
object:52
x:5,5
y:0,0
z:0,0
F_RGB:yellow
F_SHAPE:cube
object:53
x:5,5
y:1,1
z:0,0
F_RGB:yellow
F_SHAPE:cube
object:54
x:5,5
y:2,2
z:0,0
F_RGB:yellow
F_SHAPE:cube
object:55
x:5,5
y:3,3
z:0,0
F_RGB:yellow
F_SHAPE:cube
object:56
x:5,5
y:4,4
z:0,0
F_RGB:yellow
F_SHAPE:cube
object:57
x:5,5
y:5,5
z:0,0
F_RGB:yellow
F_SHAPE:cube
object:58
x:5,5
y:6,6
z:0,0
F_RGB:yellow
F_SHAPE:cube
object:59
x:5,5
y:7,7
z:0,0
F_RGB:yellow
F_SHAPE:cube
object:60
x:6,6
y:0,0
z:0,0
F_RGB:yellow
F_SHAPE:cube
object:61
x:6,6
y:1,1
z:0,0
F_RGB:yellow
F_SHAPE:cube
object:62
x:6,6
y:2,2
z:0,0
F_RGB:blue
F_SHAPE:cube
object:63
x:6,6
y:2,2
z:1,1
F_RGB:blue
F_SHAPE:cube
object:64
x:6,6
y:2,2
z:2,2
F_RGB:blue
F_SHAPE:cube
object:65
x:6,6
y:2,2
z:3,3
F_RGB:black
F_SHAPE:cube
object:66
x:6,6
y:2,2
z:4,4
F_RGB:cyan
F_SHAPE:prism
object:67
x:6,6
y:3,3
z:0,0
F_RGB:yellow
F_SHAPE:cube
object:68
x:6,6
y:4,4
z:0,0
F_RGB:yellow
F_SHAPE:cube
object:69
x:6,6
y:5,5
z:0,0
F_RGB:yellow
F_SHAPE:cube
object:70
x:6,6
y:6,6
z:0,0
F_RGB:green
F_SHAPE:cube
object:71
x:6,6
y:6,6
z:1,1
F_RGB:green
F_SHAPE:cube
object:72
x:6,6
y:6,6
z:2,2
F_RGB:green
F_SHAPE:cube
object:73
x:6,6
y:7,7
z:0,0
F_RGB:yellow
F_SHAPE:cube
object:74
x:7,7
y:0,0
z:0,0
F_RGB:yellow
F_SHAPE:cube
object:75
x:7,7
y:1,1
z:0,0
F_RGB:yellow
F_SHAPE:cube
object:76
x:7,7
y:2,2
z:0,0
F_RGB:yellow
F_SHAPE:cube
object:77
x:7,7
y:3,3
z:0,0
F_RGB:yellow
F_SHAPE:cube
object:78
x:7,7
y:4,4
z:0,0
F_RGB:yellow
F_SHAPE:cube
object:79
x:7,7
y:5,5
z:0,0
F_RGB:yellow
F_SHAPE:cube
object:80
x:7,7
y:6,6
z:0,0
F_RGB:yellow
F_SHAPE:cube
object:81
x:7,7
y:7,7
z:0,0
F_RGB:yellow
F_SHAPE:cube
object:82
x:0,0
y:0,0
z:2,2
F_RGB:gray
F_SHAPE:tower
object:83
x:2,2
y:3,3
z:3,3
F_RGB:green-black
F_SHAPE:tower
object:84
x:3,3
y:1,1
z:2,2
F_RGB:gray
F_SHAPE:tower
object:85
x:3,3
y:6,6
z:3,3
F_RGB:blue-black
F_SHAPE:tower
object:86
x:6,6
y:2,2
z:3,3
F_RGB:blue-black
F_SHAPE:tower
object:87
x:6,6
y:6,6
z:2,2
F_RGB:green
F_SHAPE:tower
object:gripper
x:6,6
y:7,6
z:7,7
