object:0
x:0,6
y:7,5
z:0,1
F_RGB:green
F_SHAPE:prism
object:1
x:3,3
y:3,3
z:0,0
F_RGB:yellow
F_SHAPE:cube
object:2
x:3,3
y:3,3
z:1,1
F_RGB:blue
F_SHAPE:cube
object:3
x:6,6
y:5,5
z:0,0
F_RGB:red
F_SHAPE:cube
object:4
x:3,3
y:3,3
z:1,1
F_RGB:yellow-blue
F_SHAPE:tower
object:gripper
x:0,6
y:7,5
z:3,4
