object:0
x:2,2
y:2,2
z:0,0
F_RGB:red
F_SHAPE:cube
object:1
x:2,2
y:2,2
z:1,1
F_RGB:blue
F_SHAPE:cube
object:2
x:2,2
y:5,5
z:6,0
F_RGB:blue
F_SHAPE:cube
object:3
x:5,5
y:2,2
z:0,0
F_RGB:green
F_SHAPE:cube
object:4
x:5,5
y:2,2
z:1,1
F_RGB:blue
F_SHAPE:cube
object:5
x:5,5
y:5,5
z:0,0
F_RGB:yellow
F_SHAPE:cube
object:6
x:5,5
y:5,5
z:1,1
F_RGB:blue
F_SHAPE:cube
object:7
x:2,2
y:2,2
z:1,1
F_RGB:red-blue
F_SHAPE:tower
object:8
x:5,5
y:2,2
z:1,1
F_RGB:green-blue
F_SHAPE:tower
object:9
x:5,5
y:5,5
z:1,1
F_RGB:yellow-blue
F_SHAPE:tower
object:gripper
x:2,6
y:5,7
z:6,7
