object:0
x:0,0
y:0,0
z:0,0
F_RGB:red
F_SHAPE:cube
object:1
x:0,0
y:0,0
z:1,1
F_RGB:yellow
F_SHAPE:cube
object:2
x:0,0
y:1,1
z:0,0
F_RGB:red
F_SHAPE:cube
object:3
x:0,0
y:1,1
z:1,1
F_RGB:yellow
F_SHAPE:cube
object:4
x:0,0
y:2,2
z:0,0
F_RGB:red
F_SHAPE:cube
object:5
x:0,0
y:2,2
z:1,1
F_RGB:yellow
F_SHAPE:cube
object:6
x:0,0
y:3,3
z:0,0
F_RGB:red
F_SHAPE:cube
object:7
x:0,0
y:3,3
z:1,1
F_RGB:yellow
F_SHAPE:cube
object:8
x:0,0
y:4,4
z:0,0
F_RGB:red
F_SHAPE:cube
object:9
x:0,0
y:4,4
z:1,1
F_RGB:yellow
F_SHAPE:cube
object:10
x:0,0
y:5,5
z:0,0
F_RGB:red
F_SHAPE:cube
object:11
x:0,0
y:5,5
z:1,1
F_RGB:yellow
F_SHAPE:cube
object:12
x:0,0
y:6,6
z:0,0
F_RGB:red
F_SHAPE:cube
object:13
x:0,0
y:6,6
z:1,1
F_RGB:yellow
F_SHAPE:cube
object:14
x:0,0
y:7,7
z:0,0
F_RGB:red
F_SHAPE:cube
object:15
x:0,0
y:7,7
z:1,1
F_RGB:yellow
F_SHAPE:cube
object:16
x:1,1
y:0,0
z:0,0
F_RGB:gray
F_SHAPE:cube
object:17
x:1,1
y:1,1
z:0,0
F_RGB:gray
F_SHAPE:cube
object:18
x:1,1
y:2,2
z:0,0
F_RGB:gray
F_SHAPE:cube
object:19
x:1,1
y:3,3
z:0,0
F_RGB:gray
F_SHAPE:cube
object:20
x:1,1
y:4,4
z:0,0
F_RGB:gray
F_SHAPE:cube
object:21
x:1,1
y:5,5
z:0,0
F_RGB:gray
F_SHAPE:cube
object:22
x:1,1
y:6,6
z:0,0
F_RGB:gray
F_SHAPE:cube
object:23
x:1,1
y:7,7
z:0,0
F_RGB:red
F_SHAPE:cube
object:24
x:1,1
y:7,7
z:1,1
F_RGB:yellow
F_SHAPE:cube
object:25
x:2,2
y:0,0
z:0,0
F_RGB:gray
F_SHAPE:cube
object:26
x:2,2
y:1,1
z:0,0
F_RGB:gray
F_SHAPE:cube
object:27
x:2,2
y:2,2
z:0,0
F_RGB:gray
F_SHAPE:cube
object:28
x:2,2
y:3,3
z:0,0
F_RGB:gray
F_SHAPE:cube
object:29
x:2,2
y:4,4
z:0,0
F_RGB:gray
F_SHAPE:cube
object:30
x:2,2
y:5,5
z:0,0
F_RGB:gray
F_SHAPE:cube
object:31
x:2,2
y:6,6
z:0,0
F_RGB:gray
F_SHAPE:cube
object:32
x:2,2
y:7,7
z:0,0
F_RGB:red
F_SHAPE:cube
object:33
x:2,2
y:7,7
z:1,1
F_RGB:yellow
F_SHAPE:cube
object:34
x:3,3
y:0,0
z:0,0
F_RGB:blue
F_SHAPE:cube
object:35
x:3,3
y:1,1
z:0,0
F_RGB:blue
F_SHAPE:cube
object:36
x:3,3
y:2,2
z:0,0
F_RGB:blue
F_SHAPE:cube
object:37
x:3,3
y:3,3
z:0,0
F_RGB:blue
F_SHAPE:cube
object:38
x:3,3
y:4,4
z:0,0
F_RGB:blue
F_SHAPE:cube
object:39
x:3,3
y:5,5
z:0,0
F_RGB:gray
F_SHAPE:cube
object:40
x:3,3
y:6,6
z:0,0
F_RGB:gray
F_SHAPE:cube
object:41
x:3,3
y:7,7
z:0,0
F_RGB:red
F_SHAPE:cube
object:42
x:3,3
y:7,7
z:1,1
F_RGB:yellow
F_SHAPE:cube
object:43
x:4,4
y:0,0
z:0,0
F_RGB:green
F_SHAPE:cube
object:44
x:4,4
y:1,1
z:0,0
F_RGB:green
F_SHAPE:cube
object:45
x:4,4
y:2,2
z:0,0
F_RGB:green
F_SHAPE:cube
object:46
x:4,4
y:3,3
z:0,0
F_RGB:green
F_SHAPE:cube
object:47
x:4,4
y:3,3
z:1,1
F_RGB:white
F_SHAPE:cube
object:48
x:4,4
y:3,3
z:2,2
F_RGB:white
F_SHAPE:cube
object:49
x:4,4
y:3,3
z:3,3
F_RGB:white
F_SHAPE:cube
object:50
x:4,4
y:4,4
z:0,0
F_RGB:blue
F_SHAPE:cube
object:51
x:4,4
y:5,5
z:0,0
F_RGB:gray
F_SHAPE:cube
object:52
x:4,4
y:6,6
z:0,0
F_RGB:gray
F_SHAPE:cube
object:53
x:4,4
y:7,7
z:0,0
F_RGB:red
F_SHAPE:cube
object:54
x:4,4
y:7,7
z:1,1
F_RGB:yellow
F_SHAPE:cube
object:55
x:5,5
y:0,0
z:0,0
F_RGB:cyan
F_SHAPE:cube
object:56
x:5,5
y:0,0
z:1,1
F_RGB:red
F_SHAPE:cube
object:57
x:5,5
y:0,0
z:2,2
F_RGB:red
F_SHAPE:cube
object:58
x:5,5
y:0,0
z:3,3
F_RGB:red
F_SHAPE:cube
object:59
x:5,5
y:0,0
z:4,4
F_RGB:red
F_SHAPE:cube
object:60
x:5,5
y:0,0
z:5,5
F_RGB:yellow
F_SHAPE:cube
object:61
x:5,5
y:1,1
z:0,0
F_RGB:cyan
F_SHAPE:cube
object:62
x:5,5
y:2,2
z:0,0
F_RGB:cyan
F_SHAPE:cube
object:63
x:5,5
y:3,3
z:0,0
F_RGB:green
F_SHAPE:cube
object:64
x:5,5
y:4,4
z:0,0
F_RGB:blue
F_SHAPE:cube
object:65
x:5,5
y:5,5
z:0,0
F_RGB:gray
F_SHAPE:cube
object:66
x:5,5
y:6,6
z:0,0
F_RGB:gray
F_SHAPE:cube
object:67
x:5,5
y:7,7
z:0,0
F_RGB:red
F_SHAPE:cube
object:68
x:5,5
y:7,7
z:1,1
F_RGB:yellow
F_SHAPE:cube
object:69
x:6,6
y:0,0
z:0,0
F_RGB:magenta
F_SHAPE:cube
object:70
x:6,6
y:1,1
z:0,0
F_RGB:magenta
F_SHAPE:cube
object:71
x:6,6
y:2,2
z:0,0
F_RGB:cyan
F_SHAPE:cube
object:72
x:6,6
y:3,3
z:0,0
F_RGB:green
F_SHAPE:cube
object:73
x:6,6
y:4,4
z:0,0
F_RGB:blue
F_SHAPE:cube
object:74
x:6,6
y:4,4
z:1,1
F_RGB:white
F_SHAPE:cube
object:75
x:6,6
y:4,4
z:2,2
F_RGB:white
F_SHAPE:cube
object:76
x:6,6
y:4,4
z:3,3
F_RGB:white
F_SHAPE:cube
object:77
x:6,6
y:4,4
z:4,4
F_RGB:white
F_SHAPE:cube
object:78
x:6,6
y:4,4
z:5,5
F_RGB:red
F_SHAPE:cube
object:79
x:6,6
y:5,5
z:0,0
F_RGB:gray
F_SHAPE:cube
object:80
x:6,6
y:6,6
z:0,0
F_RGB:gray
F_SHAPE:cube
object:81
x:6,6
y:7,7
z:0,0
F_RGB:red
F_SHAPE:cube
object:82
x:6,6
y:7,7
z:1,1
F_RGB:yellow
F_SHAPE:cube
object:83
x:7,7
y:0,0
z:0,0
F_RGB:magenta
F_SHAPE:cube
object:84
x:7,7
y:1,1
z:0,0
F_RGB:magenta
F_SHAPE:cube
object:85
x:7,7
y:1,1
z:1,1
F_RGB:yellow
F_SHAPE:cube
object:86
x:7,7
y:1,1
z:2,2
F_RGB:yellow
F_SHAPE:cube
object:87
x:7,0
y:1,0
z:3,2
F_RGB:gray
F_SHAPE:cube
object:88
x:7,7
y:2,2
z:0,0
F_RGB:cyan
F_SHAPE:cube
object:89
x:7,7
y:3,3
z:0,0
F_RGB:green
F_SHAPE:cube
object:90
x:7,7
y:4,4
z:0,0
F_RGB:blue
F_SHAPE:cube
object:91
x:7,7
y:5,5
z:0,0
F_RGB:gray
F_SHAPE:cube
object:92
x:7,7
y:6,6
z:0,0
F_RGB:gray
F_SHAPE:cube
object:93
x:7,7
y:7,7
z:0,0
F_RGB:red
F_SHAPE:cube
object:94
x:7,7
y:7,7
z:1,1
F_RGB:yellow
F_SHAPE:cube
object:95
x:0,0
y:0,0
z:1,1
F_RGB:red-yellow
F_SHAPE:tower
object:96
x:0,0
y:1,1
z:1,1
F_RGB:red-yellow
F_SHAPE:tower
object:97
x:0,0
y:2,2
z:1,1
F_RGB:red-yellow
F_SHAPE:tower
object:98
x:0,0
y:3,3
z:1,1
F_RGB:red-yellow
F_SHAPE:tower
object:99
x:0,0
y:4,4
z:1,1
F_RGB:red-yellow
F_SHAPE:tower
object:100
x:0,0
y:5,5
z:1,1
F_RGB:red-yellow
F_SHAPE:tower
object:101
x:0,0
y:6,6
z:1,1
F_RGB:red-yellow
F_SHAPE:tower
object:102
x:0,0
y:7,7
z:1,1
F_RGB:red-yellow
F_SHAPE:tower
object:103
x:1,1
y:7,7
z:1,1
F_RGB:red-yellow
F_SHAPE:tower
object:104
x:2,2
y:7,7
z:1,1
F_RGB:red-yellow
F_SHAPE:tower
object:105
x:3,3
y:7,7
z:1,1
F_RGB:red-yellow
F_SHAPE:tower
object:106
x:4,4
y:3,3
z:3,3
F_RGB:green-white
F_SHAPE:tower
object:107
x:4,4
y:7,7
z:1,1
F_RGB:red-yellow
F_SHAPE:tower
object:108
x:5,5
y:0,0
z:5,5
F_RGB:cyan-red-yellow
F_SHAPE:tower
object:109
x:5,5
y:7,7
z:1,1
F_RGB:red-yellow
F_SHAPE:tower
object:110
x:6,6
y:4,4
z:5,5
F_RGB:blue-white-red
F_SHAPE:tower
object:111
x:6,6
y:7,7
z:1,1
F_RGB:red-yellow
F_SHAPE:tower
object:112
x:7,7
y:1,1
z:3,3
F_RGB:magenta-yellow-gray
F_SHAPE:tower
object:113
x:7,7
y:7,7
z:1,1
F_RGB:red-yellow
F_SHAPE:tower
object:gripper
x:4,2
y:4,7
z:7,6
