object:0
x:1,1
y:1,1
z:0,0
F_RGB:blue
F_SHAPE:cube
object:1
x:1,1
y:2,2
z:0,0
F_RGB:yellow
F_SHAPE:cube
object:2
x:1,1
y:6,6
z:0,0
F_RGB:blue
F_SHAPE:cube
object:3
x:3,3
y:3,3
z:0,0
F_RGB:red
F_SHAPE:cube
object:4
x:3,3
y:6,6
z:0,0
F_RGB:red
F_SHAPE:prism
object:5
x:6,6
y:1,1
z:0,0
F_RGB:green
F_SHAPE:cube
object:6
x:6,6
y:1,1
z:1,1
F_RGB:blue
F_SHAPE:cube
object:7
x:6,7
y:5,7
z:0,1
F_RGB:green
F_SHAPE:prism
object:8
x:7,7
y:7,7
z:0,0
F_RGB:blue
F_SHAPE:cube
object:9
x:6,6
y:1,1
z:1,1
F_RGB:green-blue
F_SHAPE:tower
object:gripper
x:4,7
y:7,7
z:7,7
