object:0
x:1,1
y:2,2
z:0,0
F_RGB:cyan
F_SHAPE:cube
object:1
x:1,1
y:3,3
z:0,0
F_RGB:cyan
F_SHAPE:cube
object:2
x:1,1
y:3,3
z:1,1
F_RGB:black
F_SHAPE:cube
object:3
x:1,5
y:3,2
z:2,1
F_RGB:green
F_SHAPE:cube
object:4
x:1,1
y:4,4
z:0,0
F_RGB:cyan
F_SHAPE:cube
object:5
x:1,1
y:5,5
z:0,0
F_RGB:cyan
F_SHAPE:cube
object:6
x:2,2
y:2,2
z:0,0
F_RGB:cyan
F_SHAPE:cube
object:7
x:2,2
y:3,3
z:0,0
F_RGB:cyan
F_SHAPE:cube
object:8
x:2,2
y:4,4
z:0,0
F_RGB:cyan
F_SHAPE:cube
object:9
x:2,2
y:5,5
z:0,0
F_RGB:cyan
F_SHAPE:cube
object:10
x:5,5
y:2,2
z:0,0
F_RGB:yellow
F_SHAPE:cube
object:11
x:5,5
y:3,3
z:0,0
F_RGB:yellow
F_SHAPE:cube
object:12
x:5,5
y:4,4
z:0,0
F_RGB:yellow
F_SHAPE:cube
object:13
x:5,5
y:5,5
z:0,0
F_RGB:yellow
F_SHAPE:cube
object:14
x:5,5
y:5,5
z:1,1
F_RGB:black
F_SHAPE:cube
object:15
x:5,5
y:5,5
z:2,2
F_RGB:green
F_SHAPE:cube
object:16
x:6,6
y:2,2
z:0,0
F_RGB:yellow
F_SHAPE:cube
object:17
x:6,6
y:3,3
z:0,0
F_RGB:yellow
F_SHAPE:cube
object:18
x:6,6
y:4,4
z:0,0
F_RGB:yellow
F_SHAPE:cube
object:19
x:6,6
y:5,5
z:0,0
F_RGB:yellow
F_SHAPE:cube
object:20
x:1,1
y:3,3
z:2,2
F_RGB:cyan-black-green
F_SHAPE:tower
object:21
x:5,5
y:5,5
z:2,2
F_RGB:yellow-black-green
F_SHAPE:tower
object:gripper
x:4,5
y:4,2
z:7,5
