object:0
x:0,0
y:0,0
z:0,0
F_RGB:green
F_SHAPE:cube
object:1
x:0,0
y:1,1
z:0,0
F_RGB:green
F_SHAPE:cube
object:2
x:0,0
y:2,2
z:0,0
F_RGB:green
F_SHAPE:cube
object:3
x:0,0
y:3,3
z:0,0
F_RGB:green
F_SHAPE:cube
object:4
x:0,0
y:4,4
z:0,0
F_RGB:green
F_SHAPE:cube
object:5
x:0,0
y:5,5
z:0,0
F_RGB:green
F_SHAPE:cube
object:6
x:0,0
y:5,5
z:1,1
F_RGB:gray
F_SHAPE:cube
object:7
x:0,0
y:6,6
z:0,0
F_RGB:yellow
F_SHAPE:cube
object:8
x:0,0
y:7,7
z:0,0
F_RGB:yellow
F_SHAPE:cube
object:9
x:1,1
y:0,0
z:0,0
F_RGB:blue
F_SHAPE:cube
object:10
x:1,1
y:0,0
z:1,1
F_RGB:gray
F_SHAPE:cube
object:11
x:1,1
y:5,5
z:0,0
F_RGB:green
F_SHAPE:cube
object:12
x:1,1
y:5,5
z:1,1
F_RGB:gray
F_SHAPE:cube
object:13
x:1,1
y:6,6
z:0,0
F_RGB:yellow
F_SHAPE:cube
object:14
x:1,1
y:7,7
z:0,0
F_RGB:yellow
F_SHAPE:cube
object:15
x:2,2
y:0,0
z:0,0
F_RGB:blue
F_SHAPE:cube
object:16
x:2,2
y:0,0
z:1,1
F_RGB:gray
F_SHAPE:cube
object:17
x:2,2
y:5,5
z:0,0
F_RGB:green
F_SHAPE:cube
object:18
x:2,2
y:5,5
z:1,1
F_RGB:gray
F_SHAPE:cube
object:19
x:2,2
y:6,6
z:0,0
F_RGB:yellow
F_SHAPE:cube
object:20
x:2,2
y:7,7
z:0,0
F_RGB:yellow
F_SHAPE:cube
object:21
x:3,3
y:0,0
z:0,0
F_RGB:blue
F_SHAPE:cube
object:22
x:3,3
y:0,0
z:1,1
F_RGB:gray
F_SHAPE:cube
object:23
x:3,3
y:5,5
z:0,0
F_RGB:green
F_SHAPE:cube
object:24
x:3,3
y:5,5
z:1,1
F_RGB:gray
F_SHAPE:cube
object:25
x:3,3
y:6,6
z:0,0
F_RGB:yellow
F_SHAPE:cube
object:26
x:3,3
y:7,7
z:0,0
F_RGB:yellow
F_SHAPE:cube
object:27
x:4,4
y:0,0
z:0,0
F_RGB:red
F_SHAPE:cube
object:28
x:4,4
y:0,0
z:1,1
F_RGB:white
F_SHAPE:cube
object:29
x:4,4
y:0,0
z:2,2
F_RGB:cyan
F_SHAPE:sphere
object:30
x:4,4
y:1,1
z:0,0
F_RGB:red
F_SHAPE:cube
object:31
x:4,4
y:1,1
z:1,1
F_RGB:white
F_SHAPE:cube
object:32
x:4,4
y:2,2
z:0,0
F_RGB:red
F_SHAPE:cube
object:33
x:4,4
y:2,2
z:1,1
F_RGB:white
F_SHAPE:cube
object:34
x:4,4
y:3,3
z:0,0
F_RGB:red
F_SHAPE:cube
object:35
x:4,4
y:3,3
z:1,1
F_RGB:white
F_SHAPE:cube
object:36
x:4,4
y:3,3
z:2,2
F_RGB:magenta
F_SHAPE:sphere
object:37
x:4,4
y:4,4
z:0,0
F_RGB:red
F_SHAPE:cube
object:38
x:4,4
y:4,4
z:1,1
F_RGB:white
F_SHAPE:cube
object:39
x:4,4
y:5,5
z:0,0
F_RGB:green
F_SHAPE:cube
object:40
x:4,4
y:5,5
z:1,1
F_RGB:gray
F_SHAPE:cube
object:41
x:4,4
y:6,6
z:0,0
F_RGB:green
F_SHAPE:cube
object:42
x:4,4
y:6,6
z:1,1
F_RGB:gray
F_SHAPE:cube
object:43
x:4,4
y:7,7
z:0,0
F_RGB:green
F_SHAPE:cube
object:44
x:4,4
y:7,7
z:1,1
F_RGB:gray
F_SHAPE:cube
object:45
x:4,4
y:7,7
z:2,2
F_RGB:gray
F_SHAPE:cube
object:46
x:4,4
y:7,7
z:7,3
F_RGB:cyan
F_SHAPE:sphere
object:47
x:5,5
y:7,7
z:0,0
F_RGB:green
F_SHAPE:cube
object:48
x:5,5
y:7,7
z:1,1
F_RGB:gray
F_SHAPE:cube
object:49
x:5,5
y:7,7
z:2,2
F_RGB:gray
F_SHAPE:cube
object:50
x:6,6
y:7,7
z:0,0
F_RGB:green
F_SHAPE:cube
object:51
x:6,6
y:7,7
z:1,1
F_RGB:gray
F_SHAPE:cube
object:52
x:6,6
y:7,7
z:2,2
F_RGB:gray
F_SHAPE:cube
object:53
x:7,7
y:7,7
z:0,0
F_RGB:green
F_SHAPE:cube
object:54
x:7,7
y:7,7
z:1,1
F_RGB:gray
F_SHAPE:cube
object:55
x:7,7
y:7,7
z:2,2
F_RGB:gray
F_SHAPE:cube
object:56
x:7,7
y:7,7
z:3,3
F_RGB:blue
F_SHAPE:sphere
object:57
x:0,0
y:5,5
z:1,1
F_RGB:green-gray
F_SHAPE:tower
object:58
x:1,1
y:0,0
z:1,1
F_RGB:blue-gray
F_SHAPE:tower
object:59
x:1,1
y:5,5
z:1,1
F_RGB:green-gray
F_SHAPE:tower
object:60
x:2,2
y:0,0
z:1,1
F_RGB:blue-gray
F_SHAPE:tower
object:61
x:2,2
y:5,5
z:1,1
F_RGB:green-gray
F_SHAPE:tower
object:62
x:3,3
y:0,0
z:1,1
F_RGB:blue-gray
F_SHAPE:tower
object:63
x:3,3
y:5,5
z:1,1
F_RGB:green-gray
F_SHAPE:tower
object:64
x:4,4
y:0,0
z:1,1
F_RGB:red-white
F_SHAPE:tower
object:65
x:4,4
y:1,1
z:1,1
F_RGB:red-white
F_SHAPE:tower
object:66
x:4,4
y:2,2
z:1,1
F_RGB:red-white
F_SHAPE:tower
object:67
x:4,4
y:3,3
z:1,1
F_RGB:red-white
F_SHAPE:tower
object:68
x:4,4
y:4,4
z:1,1
F_RGB:red-white
F_SHAPE:tower
object:69
x:4,4
y:5,5
z:1,1
F_RGB:green-gray
F_SHAPE:tower
object:70
x:4,4
y:6,6
z:1,1
F_RGB:green-gray
F_SHAPE:tower
object:71
x:4,4
y:7,7
z:2,2
F_RGB:green-gray
F_SHAPE:tower
object:72
x:5,5
y:7,7
z:2,2
F_RGB:green-gray
F_SHAPE:tower
object:73
x:6,6
y:7,7
z:2,2
F_RGB:green-gray
F_SHAPE:tower
object:74
x:7,7
y:7,7
z:2,2
F_RGB:green-gray
F_SHAPE:tower
object:gripper
x:4,1
y:7,4
z:7,7
