object:0
x:0,0
y:6,6
z:0,0
F_RGB:blue
F_SHAPE:cube
object:1
x:0,0
y:7,7
z:0,0
F_RGB:blue
F_SHAPE:cube
object:2
x:0,0
y:7,7
z:1,1
F_RGB:green
F_SHAPE:cube
object:3
x:1,1
y:7,7
z:0,0
F_RGB:blue
F_SHAPE:cube
object:4
x:2,2
y:2,2
z:0,0
F_RGB:blue
F_SHAPE:cube
object:5
x:2,2
y:2,2
z:1,1
F_RGB:green
F_SHAPE:cube
object:6
x:2,2
y:3,3
z:0,0
F_RGB:blue
F_SHAPE:cube
object:7
x:2,2
y:4,4
z:0,0
F_RGB:blue
F_SHAPE:cube
object:8
x:2,2
y:7,7
z:0,0
F_RGB:blue
F_SHAPE:cube
object:9
x:5,5
y:6,6
z:0,0
F_RGB:blue
F_SHAPE:cube
object:10
x:5,5
y:6,6
z:1,1
F_RGB:green
F_SHAPE:cube
object:11
x:6,6
y:0,0
z:0,0
F_RGB:blue
F_SHAPE:cube
object:12
x:6,6
y:0,0
z:1,1
F_RGB:green
F_SHAPE:cube
object:13
x:6,6
y:3,3
z:0,0
F_RGB:gray
F_SHAPE:cube
object:14
x:6,6
y:3,3
z:1,1
F_RGB:black
F_SHAPE:cube
object:15
x:6,5
y:6,6
z:0,2
F_RGB:blue
F_SHAPE:cube
object:16
x:0,0
y:7,7
z:1,1
F_RGB:blue-green
F_SHAPE:tower
object:17
x:2,2
y:2,2
z:1,1
F_RGB:blue-green
F_SHAPE:tower
object:18
x:5,5
y:6,6
z:1,1
F_RGB:blue-green
F_SHAPE:tower
object:19
x:6,6
y:0,0
z:1,1
F_RGB:blue-green
F_SHAPE:tower
object:20
x:6,6
y:3,3
z:1,1
F_RGB:gray-black
F_SHAPE:tower
object:gripper
x:7,7
y:7,7
z:7,7
