object:0
x:0,0
y:3,3
z:0,0
F_RGB:black
F_SHAPE:cylinder
object:1
x:1,1
y:0,0
z:0,0
F_RGB:gray
F_SHAPE:cylinder
object:2
x:3,3
y:2,2
z:0,0
F_RGB:green
F_SHAPE:cylinder
object:3
x:3,3
y:2,2
z:1,1
F_RGB:green
F_SHAPE:cylinder
object:4
x:3,3
y:2,2
z:2,2
F_RGB:yellow
F_SHAPE:cylinder
object:5
x:3,3
y:5,5
z:0,0
F_RGB:green
F_SHAPE:cylinder
object:6
x:3,3
y:5,5
z:1,1
F_RGB:green
F_SHAPE:cylinder
object:7
x:3,3
y:5,5
z:2,2
F_RGB:blue
F_SHAPE:cylinder
object:8
x:6,6
y:2,2
z:0,0
F_RGB:green
F_SHAPE:cylinder
object:9
x:6,6
y:2,2
z:1,1
F_RGB:green
F_SHAPE:cylinder
object:10
x:6,7
y:2,0
z:2,1
F_RGB:yellow
F_SHAPE:sphere
object:11
x:6,6
y:5,5
z:0,0
F_RGB:green
F_SHAPE:cylinder
object:12
x:6,6
y:5,5
z:1,1
F_RGB:green
F_SHAPE:cylinder
object:13
x:6,6
y:5,5
z:2,2
F_RGB:cyan
F_SHAPE:sphere
object:14
x:7,7
y:0,0
z:0,0
F_RGB:gray
F_SHAPE:cylinder
object:15
x:7,7
y:7,7
z:0,0
F_RGB:black
F_SHAPE:cylinder
object:16
x:3,3
y:2,2
z:2,2
F_RGB:green-yellow
F_SHAPE:tower
object:17
x:3,3
y:5,5
z:2,2
F_RGB:green-blue
F_SHAPE:tower
object:18
x:6,6
y:2,2
z:1,1
F_RGB:green
F_SHAPE:tower
object:19
x:6,6
y:5,5
z:1,1
F_RGB:green
F_SHAPE:tower
object:gripper
x:7,7
y:3,4
z:7,7
