object:0
x:0,0
y:0,0
z:0,0
F_RGB:red
F_SHAPE:cylinder
object:1
x:0,0
y:0,0
z:1,1
F_RGB:green
F_SHAPE:cylinder
object:2
x:0,0
y:1,1
z:0,0
F_RGB:red
F_SHAPE:cylinder
object:3
x:0,0
y:2,2
z:0,0
F_RGB:red
F_SHAPE:cylinder
object:4
x:0,0
y:3,3
z:0,0
F_RGB:red
F_SHAPE:cylinder
object:5
x:0,0
y:4,4
z:0,0
F_RGB:red
F_SHAPE:cylinder
object:6
x:0,0
y:5,5
z:0,0
F_RGB:red
F_SHAPE:cylinder
object:7
x:0,0
y:6,6
z:0,0
F_RGB:red
F_SHAPE:cylinder
object:8
x:0,0
y:7,7
z:0,0
F_RGB:red
F_SHAPE:cylinder
object:9
x:0,0
y:7,7
z:1,1
F_RGB:blue
F_SHAPE:cylinder
object:10
x:1,1
y:0,0
z:0,0
F_RGB:red
F_SHAPE:cylinder
object:11
x:1,1
y:1,1
z:0,0
F_RGB:red
F_SHAPE:cylinder
object:12
x:1,1
y:2,2
z:0,0
F_RGB:red
F_SHAPE:cylinder
object:13
x:1,1
y:3,3
z:0,0
F_RGB:red
F_SHAPE:cylinder
object:14
x:1,1
y:4,4
z:0,0
F_RGB:red
F_SHAPE:cylinder
object:15
x:1,1
y:5,5
z:0,0
F_RGB:red
F_SHAPE:cylinder
object:16
x:1,1
y:6,6
z:0,0
F_RGB:red
F_SHAPE:cylinder
object:17
x:1,1
y:7,7
z:0,0
F_RGB:red
F_SHAPE:cylinder
object:18
x:2,2
y:0,0
z:0,0
F_RGB:red
F_SHAPE:cylinder
object:19
x:2,2
y:1,1
z:0,0
F_RGB:red
F_SHAPE:cylinder
object:20
x:2,2
y:2,2
z:0,0
F_RGB:red
F_SHAPE:cylinder
object:21
x:2,2
y:3,3
z:0,0
F_RGB:red
F_SHAPE:cylinder
object:22
x:2,2
y:4,4
z:0,0
F_RGB:red
F_SHAPE:cylinder
object:23
x:2,2
y:5,5
z:0,0
F_RGB:red
F_SHAPE:cylinder
object:24
x:2,2
y:6,6
z:0,0
F_RGB:red
F_SHAPE:cylinder
object:25
x:2,2
y:7,7
z:0,0
F_RGB:red
F_SHAPE:cylinder
object:26
x:3,3
y:0,0
z:0,0
F_RGB:red
F_SHAPE:cylinder
object:27
x:3,3
y:1,1
z:0,0
F_RGB:red
F_SHAPE:cylinder
object:28
x:3,3
y:2,2
z:0,0
F_RGB:red
F_SHAPE:cylinder
object:29
x:3,3
y:3,3
z:0,0
F_RGB:red
F_SHAPE:cylinder
object:30
x:3,3
y:4,4
z:0,0
F_RGB:red
F_SHAPE:cylinder
object:31
x:3,3
y:5,5
z:0,0
F_RGB:red
F_SHAPE:cylinder
object:32
x:3,3
y:6,6
z:0,0
F_RGB:red
F_SHAPE:cylinder
object:33
x:3,3
y:7,7
z:0,0
F_RGB:red
F_SHAPE:cylinder
object:34
x:4,4
y:0,0
z:0,0
F_RGB:red
F_SHAPE:cylinder
object:35
x:4,4
y:1,1
z:0,0
F_RGB:red
F_SHAPE:cylinder
object:36
x:4,4
y:2,2
z:0,0
F_RGB:red
F_SHAPE:cylinder
object:37
x:4,4
y:3,3
z:0,0
F_RGB:red
F_SHAPE:cylinder
object:38
x:4,4
y:3,3
z:1,1
F_RGB:cyan
F_SHAPE:cylinder
object:39
x:4,4
y:4,4
z:0,0
F_RGB:red
F_SHAPE:cylinder
object:40
x:4,4
y:4,4
z:1,1
F_RGB:yellow
F_SHAPE:cylinder
object:41
x:4,4
y:4,4
z:2,2
F_RGB:yellow
F_SHAPE:prism
object:42
x:4,4
y:5,5
z:0,0
F_RGB:red
F_SHAPE:cylinder
object:43
x:4,4
y:5,5
z:1,1
F_RGB:cyan
F_SHAPE:cylinder
object:44
x:4,7
y:5,0
z:2,1
F_RGB:white
F_SHAPE:cylinder
object:45
x:4,4
y:6,6
z:0,0
F_RGB:red
F_SHAPE:cylinder
object:46
x:4,4
y:7,7
z:0,0
F_RGB:red
F_SHAPE:cylinder
object:47
x:5,5
y:0,0
z:0,0
F_RGB:red
F_SHAPE:cylinder
object:48
x:5,5
y:1,1
z:0,0
F_RGB:red
F_SHAPE:cylinder
object:49
x:5,5
y:2,2
z:0,0
F_RGB:red
F_SHAPE:cylinder
object:50
x:5,5
y:3,3
z:0,0
F_RGB:red
F_SHAPE:cylinder
object:51
x:5,5
y:4,4
z:0,0
F_RGB:red
F_SHAPE:cylinder
object:52
x:5,5
y:5,5
z:0,0
F_RGB:red
F_SHAPE:cylinder
object:53
x:5,5
y:6,6
z:0,0
F_RGB:red
F_SHAPE:cylinder
object:54
x:5,5
y:7,7
z:0,0
F_RGB:red
F_SHAPE:cylinder
object:55
x:6,6
y:0,0
z:0,0
F_RGB:red
F_SHAPE:cylinder
object:56
x:6,6
y:1,1
z:0,0
F_RGB:red
F_SHAPE:cylinder
object:57
x:6,6
y:2,2
z:0,0
F_RGB:red
F_SHAPE:cylinder
object:58
x:6,6
y:3,3
z:0,0
F_RGB:red
F_SHAPE:cylinder
object:59
x:6,6
y:4,4
z:0,0
F_RGB:red
F_SHAPE:cylinder
object:60
x:6,6
y:5,5
z:0,0
F_RGB:red
F_SHAPE:cylinder
object:61
x:6,6
y:6,6
z:0,0
F_RGB:red
F_SHAPE:cylinder
object:62
x:6,6
y:7,7
z:0,0
F_RGB:red
F_SHAPE:cylinder
object:63
x:7,7
y:0,0
z:0,0
F_RGB:red
F_SHAPE:cylinder
object:64
x:7,7
y:1,1
z:0,0
F_RGB:red
F_SHAPE:cylinder
object:65
x:7,7
y:2,2
z:0,0
F_RGB:red
F_SHAPE:cylinder
object:66
x:7,7
y:3,3
z:0,0
F_RGB:red
F_SHAPE:cylinder
object:67
x:7,7
y:4,4
z:0,0
F_RGB:red
F_SHAPE:cylinder
object:68
x:7,7
y:5,5
z:0,0
F_RGB:red
F_SHAPE:cylinder
object:69
x:7,7
y:6,6
z:0,0
F_RGB:red
F_SHAPE:cylinder
object:70
x:7,7
y:7,7
z:0,0
F_RGB:red
F_SHAPE:cylinder
object:71
x:7,7
y:7,7
z:1,1
F_RGB:gray
F_SHAPE:cylinder
object:72
x:0,0
y:0,0
z:1,1
F_RGB:red-green
F_SHAPE:tower
object:73
x:0,0
y:7,7
z:1,1
F_RGB:red-blue
F_SHAPE:tower
object:74
x:4,4
y:3,3
z:1,1
F_RGB:red-cyan
F_SHAPE:tower
object:75
x:4,4
y:4,4
z:1,1
F_RGB:red-yellow
F_SHAPE:tower
object:76
x:4,4
y:5,5
z:2,2
F_RGB:red-cyan-white
F_SHAPE:tower
object:77
x:7,7
y:7,7
z:1,1
F_RGB:red-gray
F_SHAPE:tower
object:gripper
x:4,4
y:5,7
z:7,7
