object:0
x:1,1
y:3,3
z:0,0
F_RGB:white
F_SHAPE:prism
object:1
x:1,1
y:4,4
z:0,0
F_RGB:green
F_SHAPE:prism
object:2
x:1,1
y:5,5
z:0,0
F_RGB:red
F_SHAPE:prism
object:3
x:1,1
y:6,6
z:0,0
F_RGB:blue
F_SHAPE:prism
object:4
x:4,4
y:2,2
z:0,0
F_RGB:blue
F_SHAPE:prism
object:5
x:4,4
y:3,3
z:0,0
F_RGB:red
F_SHAPE:prism
object:6
x:4,4
y:4,4
z:0,0
F_RGB:yellow
F_SHAPE:prism
object:7
x:4,4
y:5,5
z:0,0
F_RGB:white
F_SHAPE:prism
object:8
x:4,4
y:6,6
z:0,0
F_RGB:blue
F_SHAPE:prism
object:9
x:5,1
y:4,2
z:0,0
F_RGB:blue
F_SHAPE:prism
object:gripper
x:5,6
y:4,4
z:6,6
