object:0
x:0,0
y:0,0
z:0,0
F_RGB:blue
F_SHAPE:cylinder
object:1
x:0,0
y:1,1
z:0,0
F_RGB:blue
F_SHAPE:cylinder
object:2
x:0,0
y:2,2
z:0,0
F_RGB:blue
F_SHAPE:cylinder
object:3
x:0,0
y:3,3
z:0,0
F_RGB:blue
F_SHAPE:cylinder
object:4
x:0,0
y:3,3
z:1,1
F_RGB:yellow
F_SHAPE:cylinder
object:5
x:0,0
y:4,4
z:0,0
F_RGB:blue
F_SHAPE:cylinder
object:6
x:0,0
y:5,5
z:0,0
F_RGB:blue
F_SHAPE:cylinder
object:7
x:0,0
y:6,6
z:0,0
F_RGB:blue
F_SHAPE:cylinder
object:8
x:0,0
y:7,7
z:0,0
F_RGB:blue
F_SHAPE:cylinder
object:9
x:3,3
y:0,0
z:0,0
F_RGB:red
F_SHAPE:cylinder
object:10
x:3,3
y:1,1
z:0,0
F_RGB:red
F_SHAPE:cylinder
object:11
x:3,3
y:2,2
z:0,0
F_RGB:red
F_SHAPE:cylinder
object:12
x:3,3
y:3,3
z:0,0
F_RGB:red
F_SHAPE:cylinder
object:13
x:3,3
y:3,3
z:1,1
F_RGB:yellow
F_SHAPE:cylinder
object:14
x:3,0
y:3,4
z:2,1
F_RGB:green
F_SHAPE:cylinder
object:15
x:3,3
y:4,4
z:0,0
F_RGB:red
F_SHAPE:cylinder
object:16
x:3,3
y:4,4
z:1,1
F_RGB:gray
F_SHAPE:cylinder
object:17
x:3,3
y:5,5
z:0,0
F_RGB:red
F_SHAPE:cylinder
object:18
x:3,3
y:6,6
z:0,0
F_RGB:red
F_SHAPE:cylinder
object:19
x:3,3
y:7,7
z:0,0
F_RGB:red
F_SHAPE:cylinder
object:20
x:7,7
y:0,0
z:0,0
F_RGB:green
F_SHAPE:cylinder
object:21
x:7,7
y:1,1
z:0,0
F_RGB:green
F_SHAPE:cylinder
object:22
x:7,7
y:2,2
z:0,0
F_RGB:green
F_SHAPE:cylinder
object:23
x:7,7
y:2,2
z:1,1
F_RGB:red
F_SHAPE:cylinder
object:24
x:7,7
y:3,3
z:0,0
F_RGB:green
F_SHAPE:cylinder
object:25
x:7,7
y:3,3
z:1,1
F_RGB:blue
F_SHAPE:cylinder
object:26
x:7,7
y:4,4
z:0,0
F_RGB:green
F_SHAPE:cylinder
object:27
x:7,7
y:4,4
z:1,1
F_RGB:yellow
F_SHAPE:cylinder
object:28
x:7,7
y:5,5
z:0,0
F_RGB:green
F_SHAPE:cylinder
object:29
x:7,7
y:6,6
z:0,0
F_RGB:green
F_SHAPE:cylinder
object:30
x:7,7
y:7,7
z:0,0
F_RGB:green
F_SHAPE:cylinder
object:31
x:0,0
y:3,3
z:1,1
F_RGB:blue-yellow
F_SHAPE:tower
object:32
x:3,3
y:3,3
z:2,2
F_RGB:red-yellow-green
F_SHAPE:tower
object:33
x:3,3
y:4,4
z:1,1
F_RGB:red-gray
F_SHAPE:tower
object:34
x:7,7
y:2,2
z:1,1
F_RGB:green-red
F_SHAPE:tower
object:35
x:7,7
y:3,3
z:1,1
F_RGB:green-blue
F_SHAPE:tower
object:36
x:7,7
y:4,4
z:1,1
F_RGB:green-yellow
F_SHAPE:tower
object:gripper
x:3,2
y:3,4
z:7,7
