object:0
x:2,2
y:2,2
z:0,0
F_RGB:green
F_SHAPE:cylinder
object:1
x:2,2
y:3,3
z:0,0
F_RGB:black
F_SHAPE:cylinder
object:2
x:2,2
y:3,3
z:1,1
F_RGB:black
F_SHAPE:cylinder
object:3
x:2,2
y:3,3
z:2,2
F_RGB:blue
F_SHAPE:cylinder
object:4
x:2,2
y:5,5
z:0,0
F_RGB:black
F_SHAPE:cylinder
object:5
x:2,2
y:5,5
z:1,1
F_RGB:black
F_SHAPE:cylinder
object:6
x:2,2
y:5,5
z:2,2
F_RGB:blue
F_SHAPE:cylinder
object:7
x:2,2
y:6,6
z:0,0
F_RGB:yellow
F_SHAPE:cylinder
object:8
x:6,6
y:1,1
z:0,0
F_RGB:blue
F_SHAPE:cylinder
object:9
x:6,6
y:1,1
z:1,1
F_RGB:yellow
F_SHAPE:cylinder
object:10
x:6,6
y:1,1
z:3,2
F_RGB:black
F_SHAPE:cylinder
object:11
x:6,6
y:4,4
z:0,0
F_RGB:blue
F_SHAPE:cylinder
object:12
x:6,6
y:4,4
z:1,1
F_RGB:yellow
F_SHAPE:cylinder
object:13
x:2,2
y:3,3
z:2,2
F_RGB:black-blue
F_SHAPE:tower
object:14
x:2,2
y:5,5
z:2,2
F_RGB:black-blue
F_SHAPE:tower
object:15
x:6,6
y:1,1
z:3,3
F_RGB:blue-yellow-black
F_SHAPE:tower
object:16
x:6,6
y:4,4
z:1,1
F_RGB:blue-yellow
F_SHAPE:tower
object:gripper
x:6,6
y:1,7
z:3,7
