object:0
x:2,2
y:2,2
z:0,0
F_RGB:green
F_SHAPE:cube
object:1
x:2,2
y:3,3
z:0,0
F_RGB:red
F_SHAPE:cube
object:2
x:2,2
y:3,3
z:1,1
F_RGB:red
F_SHAPE:cube
object:3
x:2,2
y:3,3
z:2,2
F_RGB:blue
F_SHAPE:cube
object:4
x:2,2
y:5,5
z:0,0
F_RGB:red
F_SHAPE:cube
object:5
x:2,2
y:5,5
z:1,1
F_RGB:red
F_SHAPE:cube
object:6
x:2,2
y:5,5
z:2,5
F_RGB:blue
F_SHAPE:cube
object:7
x:2,2
y:6,6
z:0,0
F_RGB:yellow
F_SHAPE:cube
object:8
x:6,6
y:1,1
z:0,0
F_RGB:blue
F_SHAPE:cube
object:9
x:6,6
y:1,1
z:1,1
F_RGB:yellow
F_SHAPE:cube
object:10
x:6,6
y:1,1
z:2,2
F_RGB:red
F_SHAPE:cube
object:11
x:6,6
y:4,4
z:0,0
F_RGB:blue
F_SHAPE:cube
object:12
x:6,6
y:4,4
z:1,1
F_RGB:yellow
F_SHAPE:cube
object:13
x:2,2
y:3,3
z:2,2
F_RGB:red-blue
F_SHAPE:tower
object:14
x:2,2
y:5,5
z:2,2
F_RGB:red-blue
F_SHAPE:tower
object:15
x:6,6
y:1,1
z:2,2
F_RGB:blue-yellow-red
F_SHAPE:tower
object:16
x:6,6
y:4,4
z:1,1
F_RGB:blue-yellow
F_SHAPE:tower
object:gripper
x:6,2
y:7,5
z:7,5
