object:0
x:1,1
y:6,6
z:0,0
F_RGB:green
F_SHAPE:cylinder
object:1
x:3,3
y:3,3
z:7,0
F_RGB:green
F_SHAPE:cylinder
object:2
x:5,5
y:5,5
z:0,0
F_RGB:green
F_SHAPE:cylinder
object:3
x:6,6
y:1,1
z:0,0
F_RGB:green
F_SHAPE:cylinder
object:gripper
x:3,6
y:3,7
z:7,7
