object:0
x:3,3
y:3,3
z:0,0
F_RGB:green
F_SHAPE:prism
object:1
x:3,3
y:5,5
z:0,4
F_RGB:green
F_SHAPE:prism
object:2
x:5,5
y:2,2
z:0,0
F_RGB:green
F_SHAPE:prism
object:3
x:5,5
y:5,5
z:0,0
F_RGB:green
F_SHAPE:prism
object:gripper
x:5,3
y:5,5
z:7,4
