object:0
x:1,1
y:1,1
z:0,0
F_RGB:white
F_SHAPE:cylinder
object:1
x:1,1
y:1,1
z:1,1
F_RGB:white
F_SHAPE:cylinder
object:2
x:1,1
y:1,1
z:2,2
F_RGB:black
F_SHAPE:prism
object:3
x:1,1
y:6,6
z:0,0
F_RGB:white
F_SHAPE:cylinder
object:4
x:1,1
y:6,6
z:1,1
F_RGB:white
F_SHAPE:cylinder
object:5
x:1,1
y:6,6
z:2,2
F_RGB:black
F_SHAPE:cylinder
object:6
x:2,2
y:3,3
z:0,0
F_RGB:cyan
F_SHAPE:cylinder
object:7
x:5,5
y:1,1
z:0,0
F_RGB:blue
F_SHAPE:cylinder
object:8
x:5,5
y:1,1
z:1,1
F_RGB:blue
F_SHAPE:cylinder
object:9
x:5,5
y:1,1
z:2,2
F_RGB:yellow
F_SHAPE:prism
object:10
x:5,5
y:6,6
z:0,0
F_RGB:blue
F_SHAPE:cylinder
object:11
x:5,5
y:6,6
z:1,1
F_RGB:blue
F_SHAPE:cylinder
object:12
x:5,1
y:6,6
z:2,3
F_RGB:yellow
F_SHAPE:cylinder
object:13
x:6,6
y:4,4
z:0,0
F_RGB:cyan
F_SHAPE:cylinder
object:14
x:6,6
y:4,4
z:1,1
F_RGB:black
F_SHAPE:cylinder
object:15
x:1,1
y:1,1
z:1,1
F_RGB:white
F_SHAPE:tower
object:16
x:1,1
y:6,6
z:2,2
F_RGB:white-black
F_SHAPE:tower
object:17
x:5,5
y:1,1
z:1,1
F_RGB:blue
F_SHAPE:tower
object:18
x:5,5
y:6,6
z:2,2
F_RGB:blue-yellow
F_SHAPE:tower
object:19
x:6,6
y:4,4
z:1,1
F_RGB:cyan-black
F_SHAPE:tower
object:gripper
x:6,1
y:7,6
z:7,6
