object:0
x:1,1
y:2,2
z:0,0
F_RGB:green
F_SHAPE:cylinder
object:1
x:1,1
y:3,3
z:0,0
F_RGB:green
F_SHAPE:cylinder
object:2
x:1,1
y:4,4
z:0,0
F_RGB:green
F_SHAPE:cylinder
object:3
x:1,1
y:5,5
z:0,0
F_RGB:green
F_SHAPE:cylinder
object:4
x:4,4
y:3,3
z:0,0
F_RGB:blue
F_SHAPE:cylinder
object:5
x:5,1
y:3,4
z:0,1
F_RGB:black
F_SHAPE:cylinder
object:6
x:6,6
y:3,3
z:0,0
F_RGB:blue
F_SHAPE:cylinder
object:gripper
x:5,1
y:6,4
z:7,7
