object:0
x:1,1
y:0,0
z:0,0
F_RGB:gray
F_SHAPE:cube
object:1
x:1,1
y:1,1
z:0,0
F_RGB:green
F_SHAPE:cube
object:2
x:1,1
y:2,2
z:0,0
F_RGB:gray
F_SHAPE:cube
object:3
x:1,1
y:2,2
z:1,1
F_RGB:gray
F_SHAPE:prism
object:4
x:1,1
y:3,3
z:0,0
F_RGB:green
F_SHAPE:cube
object:5
x:1,1
y:4,4
z:0,0
F_RGB:gray
F_SHAPE:cube
object:6
x:1,1
y:5,5
z:0,0
F_RGB:yellow
F_SHAPE:cube
object:7
x:1,1
y:6,6
z:0,0
F_RGB:gray
F_SHAPE:cube
object:8
x:1,1
y:6,6
z:1,1
F_RGB:red
F_SHAPE:prism
object:9
x:1,1
y:7,7
z:0,0
F_RGB:yellow
F_SHAPE:cube
object:10
x:5,5
y:0,0
z:0,0
F_RGB:gray
F_SHAPE:cube
object:11
x:5,5
y:0,0
z:1,1
F_RGB:gray
F_SHAPE:cube
object:12
x:5,5
y:0,0
z:2,2
F_RGB:red
F_SHAPE:prism
object:13
x:5,5
y:3,3
z:0,0
F_RGB:blue
F_SHAPE:cube
object:14
x:5,5
y:3,3
z:1,1
F_RGB:blue
F_SHAPE:cube
object:15
x:5,1
y:3,1
z:2,1
F_RGB:red
F_SHAPE:prism
object:16
x:5,5
y:6,6
z:0,0
F_RGB:gray
F_SHAPE:cube
object:17
x:5,5
y:6,6
z:1,1
F_RGB:gray
F_SHAPE:cube
object:18
x:5,5
y:6,6
z:2,2
F_RGB:red
F_SHAPE:prism
object:19
x:5,5
y:0,0
z:1,1
F_RGB:gray
F_SHAPE:tower
object:20
x:5,5
y:3,3
z:1,1
F_RGB:blue
F_SHAPE:tower
object:21
x:5,5
y:6,6
z:1,1
F_RGB:gray
F_SHAPE:tower
object:gripper
x:6,1
y:5,1
z:7,7
