object:0
x:0,0
y:7,7
z:0,0
F_RGB:yellow
F_SHAPE:cube
object:1
x:1,1
y:1,1
z:0,0
F_RGB:blue
F_SHAPE:cube
object:2
x:2,2
y:1,1
z:0,0
F_RGB:gray
F_SHAPE:prism
object:3
x:2,2
y:7,7
z:0,0
F_RGB:yellow
F_SHAPE:cube
object:4
x:3,3
y:1,1
z:0,0
F_RGB:blue
F_SHAPE:cube
object:5
x:3,3
y:3,3
z:0,0
F_RGB:blue
F_SHAPE:cube
object:6
x:3,3
y:4,4
z:0,0
F_RGB:blue
F_SHAPE:cube
object:7
x:3,3
y:4,4
z:1,1
F_RGB:black
F_SHAPE:cube
object:8
x:3,1
y:4,7
z:2,0
F_RGB:gray
F_SHAPE:prism
object:9
x:3,3
y:5,5
z:0,0
F_RGB:blue
F_SHAPE:cube
object:10
x:6,6
y:3,3
z:0,0
F_RGB:green
F_SHAPE:cube
object:11
x:6,6
y:4,4
z:0,0
F_RGB:green
F_SHAPE:cube
object:12
x:6,6
y:4,4
z:1,1
F_RGB:black
F_SHAPE:cube
object:13
x:6,6
y:5,5
z:0,0
F_RGB:green
F_SHAPE:cube
object:14
x:3,3
y:4,4
z:1,1
F_RGB:blue-black
F_SHAPE:tower
object:15
x:6,6
y:4,4
z:1,1
F_RGB:green-black
F_SHAPE:tower
object:gripper
x:3,4
y:4,6
z:7,7
