object:0
x:3,3
y:2,2
z:0,0
F_RGB:blue
F_SHAPE:cube
object:1
x:3,3
y:3,3
z:0,0
F_RGB:blue
F_SHAPE:cube
object:2
x:3,3
y:4,4
z:0,0
F_RGB:blue
F_SHAPE:cube
object:3
x:6,6
y:5,5
z:0,0
F_RGB:blue
F_SHAPE:cube
object:4
x:6,6
y:6,6
z:0,0
F_RGB:blue
F_SHAPE:cube
object:5
x:6,6
y:6,6
z:1,1
F_RGB:yellow
F_SHAPE:cube
object:6
x:6,3
y:6,3
z:2,1
F_RGB:yellow
F_SHAPE:cube
object:7
x:6,6
y:6,6
z:2,2
F_RGB:blue-yellow
F_SHAPE:tower
object:gripper
x:6,3
y:6,6
z:6,7
