object:0
x:0,0
y:0,0
z:0,0
F_RGB:blue
F_SHAPE:sphere
object:1
x:0,0
y:7,7
z:0,0
F_RGB:yellow
F_SHAPE:cube
object:2
x:2,4
y:7,7
z:0,0
F_RGB:black
F_SHAPE:cube
object:3
x:7,7
y:0,0
z:0,0
F_RGB:cyan
F_SHAPE:cube
object:4
x:7,7
y:7,7
z:0,0
F_RGB:blue
F_SHAPE:cube
object:gripper
x:2,4
y:7,7
z:7,7
