object:0
x:2,2
y:2,2
z:0,0
F_RGB:green
F_SHAPE:sphere
object:1
x:2,2
y:4,4
z:0,0
F_RGB:blue
F_SHAPE:sphere
object:2
x:2,2
y:6,6
z:0,0
F_RGB:red
F_SHAPE:sphere
object:3
x:4,4
y:2,2
z:0,0
F_RGB:yellow
F_SHAPE:sphere
object:4
x:4,4
y:4,4
z:0,0
F_RGB:gray
F_SHAPE:sphere
object:5
x:4,4
y:6,6
z:0,0
F_RGB:magenta
F_SHAPE:sphere
object:6
x:6,6
y:4,4
z:0,2
F_RGB:cyan
F_SHAPE:sphere
object:gripper
x:6,6
y:6,4
z:7,2
