object:0
x:0,0
y:2,2
z:0,0
F_RGB:black
F_SHAPE:cube
object:1
x:0,0
y:3,3
z:0,0
F_RGB:black
F_SHAPE:cube
object:2
x:0,0
y:3,3
z:1,1
F_RGB:white
F_SHAPE:cube
object:3
x:0,0
y:3,3
z:2,2
F_RGB:green
F_SHAPE:cube
object:4
x:0,0
y:4,4
z:0,0
F_RGB:black
F_SHAPE:cube
object:5
x:0,0
y:5,5
z:0,0
F_RGB:black
F_SHAPE:cube
object:6
x:0,0
y:5,5
z:1,1
F_RGB:yellow
F_SHAPE:cube
object:7
x:0,0
y:5,5
z:2,2
F_RGB:black
F_SHAPE:cube
object:8
x:5,5
y:2,2
z:0,0
F_RGB:black
F_SHAPE:cube
object:9
x:5,5
y:2,2
z:1,1
F_RGB:white
F_SHAPE:cube
object:10
x:5,5
y:2,2
z:2,2
F_RGB:gray
F_SHAPE:cube
object:11
x:5,5
y:6,6
z:0,0
F_RGB:black
F_SHAPE:cube
object:12
x:5,5
y:6,6
z:1,1
F_RGB:white
F_SHAPE:cube
object:13
x:5,5
y:6,2
z:2,3
F_RGB:blue
F_SHAPE:cube
object:14
x:0,0
y:3,3
z:2,2
F_RGB:black-white-green
F_SHAPE:tower
object:15
x:0,0
y:5,5
z:2,2
F_RGB:black-yellow
F_SHAPE:tower
object:16
x:5,5
y:2,2
z:2,2
F_RGB:black-white-gray
F_SHAPE:tower
object:17
x:5,5
y:6,6
z:2,2
F_RGB:black-white-blue
F_SHAPE:tower
object:gripper
x:2,5
y:7,4
z:7,7
