object:0
x:1,1
y:6,6
z:0,0
F_RGB:red
F_SHAPE:cube
object:1
x:1,1
y:6,6
z:1,1
F_RGB:green
F_SHAPE:cube
object:2
x:2,2
y:2,2
z:0,0
F_RGB:red
F_SHAPE:cube
object:3
x:2,2
y:2,2
z:1,1
F_RGB:red
F_SHAPE:cube
object:4
x:4,4
y:3,3
z:0,0
F_RGB:yellow
F_SHAPE:cube
object:5
x:4,4
y:3,3
z:1,1
F_RGB:red
F_SHAPE:cube
object:6
x:4,4
y:3,3
z:2,2
F_RGB:gray
F_SHAPE:prism
object:7
x:4,4
y:6,6
z:0,0
F_RGB:blue
F_SHAPE:cube
object:8
x:4,4
y:6,6
z:1,1
F_RGB:green
F_SHAPE:cube
object:9
x:4,1
y:6,6
z:2,2
F_RGB:gray
F_SHAPE:prism
object:10
x:6,6
y:5,5
z:0,0
F_RGB:red
F_SHAPE:cube
object:11
x:6,6
y:5,5
z:1,1
F_RGB:gray
F_SHAPE:prism
object:12
x:1,1
y:6,6
z:1,1
F_RGB:red-green
F_SHAPE:tower
object:13
x:2,2
y:2,2
z:1,1
F_RGB:red
F_SHAPE:tower
object:14
x:4,4
y:3,3
z:1,1
F_RGB:yellow-red
F_SHAPE:tower
object:15
x:4,4
y:6,6
z:1,1
F_RGB:blue-green
F_SHAPE:tower
object:gripper
x:5,5
y:7,7
z:7,6
