object:0
x:3,3
y:4,4
z:0,0
F_RGB:yellow
F_SHAPE:cylinder
object:1
x:3,5
y:4,4
z:1,0
F_RGB:blue
F_SHAPE:cylinder
object:2
x:7,7
y:4,4
z:0,0
F_RGB:green
F_SHAPE:cylinder
object:3
x:3,3
y:4,4
z:1,1
F_RGB:yellow-blue
F_SHAPE:tower
object:gripper
x:3,4
y:4,7
z:5,7
