object:0
x:0,0
y:0,0
z:0,0
F_RGB:gray
F_SHAPE:cube
object:1
x:0,0
y:1,1
z:0,0
F_RGB:gray
F_SHAPE:cube
object:2
x:0,0
y:2,2
z:0,0
F_RGB:gray
F_SHAPE:cube
object:3
x:0,0
y:3,3
z:0,0
F_RGB:gray
F_SHAPE:cube
object:4
x:0,0
y:4,4
z:0,0
F_RGB:gray
F_SHAPE:cube
object:5
x:0,3
y:4,3
z:1,1
F_RGB:red
F_SHAPE:cube
object:6
x:0,0
y:5,5
z:0,0
F_RGB:gray
F_SHAPE:cube
object:7
x:0,0
y:6,6
z:0,0
F_RGB:gray
F_SHAPE:cube
object:8
x:0,0
y:7,7
z:0,0
F_RGB:gray
F_SHAPE:cube
object:9
x:3,3
y:3,3
z:0,0
F_RGB:green
F_SHAPE:cube
object:10
x:3,3
y:6,6
z:0,0
F_RGB:blue
F_SHAPE:cube
object:11
x:3,3
y:6,6
z:1,1
F_RGB:red
F_SHAPE:cube
object:12
x:6,6
y:6,6
z:0,0
F_RGB:yellow
F_SHAPE:cube
object:13
x:6,6
y:6,6
z:1,1
F_RGB:red
F_SHAPE:cube
object:14
x:0,0
y:4,4
z:1,1
F_RGB:gray-red
F_SHAPE:tower
object:15
x:3,3
y:6,6
z:1,1
F_RGB:blue-red
F_SHAPE:tower
object:16
x:6,6
y:6,6
z:1,1
F_RGB:yellow-red
F_SHAPE:tower
object:gripper
x:6,5
y:4,5
z:7,7
