object:0
x:0,0
y:0,0
z:0,0
F_RGB:green
F_SHAPE:cube
object:1
x:0,0
y:1,1
z:0,0
F_RGB:green
F_SHAPE:cube
object:2
x:0,0
y:2,2
z:0,0
F_RGB:green
F_SHAPE:cube
object:3
x:0,0
y:2,2
z:1,1
F_RGB:green
F_SHAPE:cube
object:4
x:0,0
y:3,3
z:0,0
F_RGB:green
F_SHAPE:cube
object:5
x:0,0
y:3,3
z:1,1
F_RGB:green
F_SHAPE:cube
object:6
x:0,0
y:3,3
z:2,2
F_RGB:green
F_SHAPE:cube
object:7
x:0,0
y:4,4
z:0,0
F_RGB:green
F_SHAPE:cube
object:8
x:0,0
y:4,4
z:1,1
F_RGB:green
F_SHAPE:cube
object:9
x:0,0
y:4,4
z:2,2
F_RGB:green
F_SHAPE:cube
object:10
x:0,0
y:4,4
z:3,3
F_RGB:green
F_SHAPE:cube
object:11
x:0,0
y:5,5
z:0,0
F_RGB:green
F_SHAPE:cube
object:12
x:0,0
y:5,5
z:1,1
F_RGB:green
F_SHAPE:cube
object:13
x:0,0
y:5,5
z:2,2
F_RGB:green
F_SHAPE:cube
object:14
x:0,0
y:5,5
z:3,3
F_RGB:green
F_SHAPE:cube
object:15
x:0,0
y:5,5
z:4,4
F_RGB:green
F_SHAPE:cube
object:16
x:0,0
y:6,6
z:0,0
F_RGB:green
F_SHAPE:cube
object:17
x:0,0
y:6,6
z:1,1
F_RGB:green
F_SHAPE:cube
object:18
x:0,0
y:6,6
z:2,2
F_RGB:green
F_SHAPE:cube
object:19
x:0,0
y:6,6
z:3,3
F_RGB:green
F_SHAPE:cube
object:20
x:0,0
y:6,6
z:4,4
F_RGB:green
F_SHAPE:cube
object:21
x:0,0
y:6,6
z:5,5
F_RGB:green
F_SHAPE:cube
object:22
x:0,0
y:7,7
z:0,0
F_RGB:green
F_SHAPE:cube
object:23
x:0,0
y:7,7
z:1,1
F_RGB:green
F_SHAPE:cube
object:24
x:0,0
y:7,7
z:2,2
F_RGB:green
F_SHAPE:cube
object:25
x:0,0
y:7,7
z:3,3
F_RGB:green
F_SHAPE:cube
object:26
x:1,1
y:7,7
z:0,0
F_RGB:green
F_SHAPE:cube
object:27
x:1,1
y:7,7
z:1,1
F_RGB:green
F_SHAPE:cube
object:28
x:1,1
y:7,7
z:2,2
F_RGB:green
F_SHAPE:cube
object:29
x:2,2
y:7,7
z:0,0
F_RGB:green
F_SHAPE:cube
object:30
x:2,2
y:7,7
z:1,1
F_RGB:green
F_SHAPE:cube
object:31
x:3,3
y:1,1
z:0,0
F_RGB:green
F_SHAPE:cube
object:32
x:3,3
y:2,2
z:0,0
F_RGB:red
F_SHAPE:cube
object:33
x:3,3
y:3,3
z:0,0
F_RGB:yellow
F_SHAPE:cube
object:34
x:3,3
y:4,4
z:0,0
F_RGB:red
F_SHAPE:cube
object:35
x:3,5
y:4,4
z:1,0
F_RGB:red
F_SHAPE:sphere
object:36
x:3,3
y:7,7
z:0,0
F_RGB:green
F_SHAPE:cube
object:37
x:4,4
y:7,7
z:0,0
F_RGB:green
F_SHAPE:cube
object:38
x:5,5
y:1,1
z:0,0
F_RGB:green
F_SHAPE:sphere
object:39
x:5,5
y:2,2
z:0,0
F_RGB:red
F_SHAPE:sphere
object:40
x:5,5
y:3,3
z:0,0
F_RGB:yellow
F_SHAPE:sphere
object:41
x:5,5
y:7,7
z:0,0
F_RGB:green
F_SHAPE:cube
object:42
x:6,6
y:7,7
z:0,0
F_RGB:green
F_SHAPE:cube
object:43
x:7,7
y:7,7
z:0,0
F_RGB:green
F_SHAPE:cube
object:44
x:7,7
y:7,7
z:1,1
F_RGB:green
F_SHAPE:cube
object:45
x:0,0
y:2,2
z:1,1
F_RGB:green
F_SHAPE:tower
object:46
x:0,0
y:3,3
z:2,2
F_RGB:green
F_SHAPE:tower
object:47
x:0,0
y:4,4
z:3,3
F_RGB:green
F_SHAPE:tower
object:48
x:0,0
y:5,5
z:4,4
F_RGB:green
F_SHAPE:tower
object:49
x:0,0
y:6,6
z:5,5
F_RGB:green
F_SHAPE:tower
object:50
x:0,0
y:7,7
z:3,3
F_RGB:green
F_SHAPE:tower
object:51
x:1,1
y:7,7
z:2,2
F_RGB:green
F_SHAPE:tower
object:52
x:2,2
y:7,7
z:1,1
F_RGB:green
F_SHAPE:tower
object:53
x:7,7
y:7,7
z:1,1
F_RGB:green
F_SHAPE:tower
object:gripper
x:3,7
y:4,4
z:4,7
