object:0
x:3,3
y:3,3
z:0,0
F_RGB:green
F_SHAPE:cube
object:1
x:3,3
y:3,3
z:1,1
F_RGB:green
F_SHAPE:cube
object:2
x:3,3
y:3,3
z:2,2
F_RGB:yellow
F_SHAPE:cube
object:3
x:3,3
y:6,6
z:0,0
F_RGB:green
F_SHAPE:cube
object:4
x:3,3
y:6,6
z:1,1
F_RGB:green
F_SHAPE:cube
object:5
x:3,6
y:6,3
z:2,1
F_RGB:yellow
F_SHAPE:prism
object:6
x:6,6
y:3,3
z:0,0
F_RGB:gray
F_SHAPE:cube
object:7
x:6,6
y:5,5
z:0,0
F_RGB:blue
F_SHAPE:cube
object:8
x:6,6
y:7,7
z:0,0
F_RGB:white
F_SHAPE:cube
object:9
x:3,3
y:3,3
z:2,2
F_RGB:green-yellow
F_SHAPE:tower
object:10
x:3,3
y:6,6
z:1,1
F_RGB:green
F_SHAPE:tower
object:gripper
x:4,4
y:5,7
z:7,7
