object:0
x:0,0
y:7,7
z:0,0
F_RGB:green
F_SHAPE:cube
object:1
x:0,0
y:7,7
z:1,1
F_RGB:green
F_SHAPE:cube
object:2
x:0,0
y:7,7
z:2,2
F_RGB:red
F_SHAPE:cube
object:3
x:2,2
y:4,4
z:0,0
F_RGB:green
F_SHAPE:cube
object:4
x:2,2
y:4,4
z:1,1
F_RGB:green
F_SHAPE:cube
object:5
x:2,2
y:4,4
z:2,2
F_RGB:red
F_SHAPE:cube
object:6
x:2,7
y:4,0
z:3,2
F_RGB:white
F_SHAPE:cube
object:7
x:3,3
y:7,7
z:0,0
F_RGB:green
F_SHAPE:cube
object:8
x:3,3
y:7,7
z:1,1
F_RGB:green
F_SHAPE:cube
object:9
x:3,3
y:7,7
z:2,2
F_RGB:red
F_SHAPE:cube
object:10
x:6,6
y:7,7
z:0,0
F_RGB:blue
F_SHAPE:cube
object:11
x:6,6
y:7,7
z:1,1
F_RGB:blue
F_SHAPE:cube
object:12
x:6,6
y:7,7
z:2,2
F_RGB:white
F_SHAPE:cube
object:13
x:7,7
y:0,0
z:0,0
F_RGB:blue
F_SHAPE:cube
object:14
x:7,7
y:0,0
z:1,1
F_RGB:blue
F_SHAPE:cube
object:15
x:7,7
y:3,3
z:0,0
F_RGB:blue
F_SHAPE:cube
object:16
x:7,7
y:3,3
z:1,1
F_RGB:blue
F_SHAPE:cube
object:17
x:7,7
y:3,3
z:2,2
F_RGB:white
F_SHAPE:cube
object:18
x:0,0
y:7,7
z:2,2
F_RGB:green-red
F_SHAPE:tower
object:19
x:2,2
y:4,4
z:3,3
F_RGB:green-red-white
F_SHAPE:tower
object:20
x:3,3
y:7,7
z:2,2
F_RGB:green-red
F_SHAPE:tower
object:21
x:6,6
y:7,7
z:2,2
F_RGB:blue-white
F_SHAPE:tower
object:22
x:7,7
y:0,0
z:1,1
F_RGB:blue
F_SHAPE:tower
object:23
x:7,7
y:3,3
z:2,2
F_RGB:blue-white
F_SHAPE:tower
object:gripper
x:2,3
y:4,0
z:6,7
