object:0
x:0,0
y:0,0
z:0,0
F_RGB:black
F_SHAPE:cylinder
object:1
x:0,0
y:1,1
z:0,0
F_RGB:black
F_SHAPE:cylinder
object:2
x:0,0
y:2,2
z:0,0
F_RGB:black
F_SHAPE:cylinder
object:3
x:0,0
y:3,3
z:0,0
F_RGB:black
F_SHAPE:cylinder
object:4
x:0,0
y:4,4
z:0,0
F_RGB:black
F_SHAPE:cylinder
object:5
x:0,0
y:5,5
z:0,0
F_RGB:black
F_SHAPE:cylinder
object:6
x:0,0
y:6,6
z:0,0
F_RGB:black
F_SHAPE:cylinder
object:7
x:0,0
y:7,7
z:0,0
F_RGB:black
F_SHAPE:cylinder
object:8
x:3,3
y:3,3
z:0,0
F_RGB:black
F_SHAPE:prism
object:9
x:3,3
y:4,5
z:0,0
F_RGB:blue
F_SHAPE:prism
object:10
x:7,7
y:0,0
z:0,0
F_RGB:blue
F_SHAPE:cylinder
object:11
x:7,7
y:1,1
z:0,0
F_RGB:blue
F_SHAPE:cylinder
object:12
x:7,7
y:2,2
z:0,0
F_RGB:blue
F_SHAPE:cylinder
object:13
x:7,7
y:3,3
z:0,0
F_RGB:blue
F_SHAPE:cylinder
object:14
x:7,7
y:4,4
z:0,0
F_RGB:blue
F_SHAPE:cylinder
object:15
x:7,7
y:5,5
z:0,0
F_RGB:blue
F_SHAPE:cylinder
object:16
x:7,7
y:6,6
z:0,0
F_RGB:blue
F_SHAPE:cylinder
object:17
x:7,7
y:7,7
z:0,0
F_RGB:blue
F_SHAPE:cylinder
object:gripper
x:3,3
y:6,5
z:7,4
