object:0
x:0,0
y:3,3
z:0,0
F_RGB:gray
F_SHAPE:cylinder
object:1
x:0,0
y:4,4
z:0,0
F_RGB:gray
F_SHAPE:cylinder
object:2
x:0,0
y:4,4
z:1,1
F_RGB:green
F_SHAPE:cylinder
object:3
x:0,0
y:5,5
z:0,0
F_RGB:gray
F_SHAPE:cylinder
object:4
x:2,2
y:0,0
z:0,0
F_RGB:gray
F_SHAPE:cylinder
object:5
x:2,2
y:7,7
z:0,0
F_RGB:gray
F_SHAPE:cylinder
object:6
x:3,3
y:0,0
z:0,0
F_RGB:gray
F_SHAPE:cylinder
object:7
x:3,3
y:0,0
z:1,1
F_RGB:blue
F_SHAPE:cylinder
object:8
x:3,3
y:3,3
z:0,0
F_RGB:gray
F_SHAPE:cylinder
object:9
x:3,3
y:4,4
z:0,0
F_RGB:gray
F_SHAPE:cylinder
object:10
x:3,3
y:4,4
z:1,1
F_RGB:black
F_SHAPE:cylinder
object:11
x:3,3
y:5,5
z:0,0
F_RGB:gray
F_SHAPE:cylinder
object:12
x:3,3
y:7,7
z:0,0
F_RGB:gray
F_SHAPE:cylinder
object:13
x:3,3
y:7,7
z:1,1
F_RGB:yellow
F_SHAPE:cylinder
object:14
x:4,4
y:0,0
z:0,0
F_RGB:gray
F_SHAPE:cylinder
object:15
x:4,4
y:7,7
z:0,0
F_RGB:gray
F_SHAPE:cylinder
object:16
x:6,6
y:3,3
z:0,0
F_RGB:gray
F_SHAPE:cylinder
object:17
x:6,6
y:4,4
z:0,0
F_RGB:gray
F_SHAPE:cylinder
object:18
x:6,6
y:4,4
z:1,1
F_RGB:black
F_SHAPE:cylinder
object:19
x:6,6
y:5,4
z:0,2
F_RGB:gray
F_SHAPE:cylinder
object:20
x:0,0
y:4,4
z:1,1
F_RGB:gray-green
F_SHAPE:tower
object:21
x:3,3
y:0,0
z:1,1
F_RGB:gray-blue
F_SHAPE:tower
object:22
x:3,3
y:4,4
z:1,1
F_RGB:gray-black
F_SHAPE:tower
object:23
x:3,3
y:7,7
z:1,1
F_RGB:gray-yellow
F_SHAPE:tower
object:24
x:6,6
y:4,4
z:1,1
F_RGB:gray-black
F_SHAPE:tower
object:gripper
x:5,6
y:7,4
z:7,6
