object:0
x:1,1
y:3,3
z:0,3
F_RGB:blue
F_SHAPE:cylinder
object:1
x:1,1
y:5,5
z:0,0
F_RGB:blue
F_SHAPE:sphere
object:2
x:3,3
y:3,3
z:0,0
F_RGB:red
F_SHAPE:sphere
object:3
x:3,3
y:5,5
z:0,0
F_RGB:red
F_SHAPE:cylinder
object:4
x:5,5
y:3,3
z:0,0
F_RGB:green
F_SHAPE:sphere
object:5
x:5,5
y:5,5
z:0,0
F_RGB:green
F_SHAPE:cylinder
object:6
x:7,7
y:3,3
z:0,0
F_RGB:cyan
F_SHAPE:sphere
object:7
x:7,7
y:5,5
z:0,0
F_RGB:cyan
F_SHAPE:cylinder
object:gripper
x:5,1
y:7,3
z:7,3
