object:0
x:0,0
y:0,0
z:0,0
F_RGB:red
F_SHAPE:cylinder
object:1
x:0,0
y:1,1
z:0,0
F_RGB:red
F_SHAPE:cylinder
object:2
x:0,0
y:2,2
z:0,0
F_RGB:red
F_SHAPE:cylinder
object:3
x:0,0
y:3,3
z:0,0
F_RGB:red
F_SHAPE:cylinder
object:4
x:0,0
y:4,4
z:0,0
F_RGB:red
F_SHAPE:cylinder
object:5
x:0,0
y:5,5
z:0,0
F_RGB:red
F_SHAPE:cylinder
object:6
x:0,0
y:6,6
z:0,0
F_RGB:red
F_SHAPE:cylinder
object:7
x:0,0
y:7,7
z:0,0
F_RGB:red
F_SHAPE:cylinder
object:8
x:1,7
y:0,0
z:0,1
F_RGB:red
F_SHAPE:cylinder
object:9
x:1,1
y:1,1
z:0,0
F_RGB:red
F_SHAPE:cylinder
object:10
x:1,1
y:2,2
z:0,0
F_RGB:red
F_SHAPE:cylinder
object:11
x:1,1
y:3,3
z:0,0
F_RGB:red
F_SHAPE:cylinder
object:12
x:1,1
y:4,4
z:0,0
F_RGB:red
F_SHAPE:cylinder
object:13
x:1,1
y:5,5
z:0,0
F_RGB:red
F_SHAPE:cylinder
object:14
x:1,1
y:6,6
z:0,0
F_RGB:red
F_SHAPE:cylinder
object:15
x:1,1
y:7,7
z:0,0
F_RGB:red
F_SHAPE:cylinder
object:16
x:3,3
y:4,4
z:0,0
F_RGB:red
F_SHAPE:sphere
object:17
x:4,4
y:4,4
z:0,0
F_RGB:yellow
F_SHAPE:sphere
object:18
x:6,6
y:0,0
z:0,0
F_RGB:yellow
F_SHAPE:cylinder
object:19
x:6,6
y:1,1
z:0,0
F_RGB:yellow
F_SHAPE:cylinder
object:20
x:6,6
y:2,2
z:0,0
F_RGB:yellow
F_SHAPE:cylinder
object:21
x:6,6
y:3,3
z:0,0
F_RGB:yellow
F_SHAPE:cylinder
object:22
x:6,6
y:4,4
z:0,0
F_RGB:yellow
F_SHAPE:cylinder
object:23
x:6,6
y:5,5
z:0,0
F_RGB:yellow
F_SHAPE:cylinder
object:24
x:6,6
y:6,6
z:0,0
F_RGB:yellow
F_SHAPE:cylinder
object:25
x:6,6
y:7,7
z:0,0
F_RGB:yellow
F_SHAPE:cylinder
object:26
x:7,7
y:0,0
z:0,0
F_RGB:yellow
F_SHAPE:cylinder
object:27
x:7,7
y:1,1
z:0,0
F_RGB:yellow
F_SHAPE:cylinder
object:28
x:7,7
y:2,2
z:0,0
F_RGB:yellow
F_SHAPE:cylinder
object:29
x:7,7
y:3,3
z:0,0
F_RGB:yellow
F_SHAPE:cylinder
object:30
x:7,7
y:4,4
z:0,0
F_RGB:yellow
F_SHAPE:cylinder
object:31
x:7,7
y:5,5
z:0,0
F_RGB:yellow
F_SHAPE:cylinder
object:32
x:7,7
y:6,6
z:0,0
F_RGB:yellow
F_SHAPE:cylinder
object:33
x:7,7
y:7,7
z:0,0
F_RGB:yellow
F_SHAPE:cylinder
object:gripper
x:4,7
y:4,0
z:7,7
