object:0
x:0,0
y:4,4
z:0,0
F_RGB:gray
F_SHAPE:cylinder
object:1
x:0,0
y:4,4
z:1,1
F_RGB:gray
F_SHAPE:cylinder
object:2
x:0,0
y:4,4
z:2,2
F_RGB:gray
F_SHAPE:cylinder
object:3
x:0,0
y:4,4
z:3,3
F_RGB:red
F_SHAPE:sphere
object:4
x:1,1
y:4,4
z:0,0
F_RGB:gray
F_SHAPE:cylinder
object:5
x:1,1
y:4,4
z:1,1
F_RGB:gray
F_SHAPE:cylinder
object:6
x:1,1
y:4,4
z:2,2
F_RGB:gray
F_SHAPE:cylinder
object:7
x:1,1
y:4,4
z:3,3
F_RGB:red
F_SHAPE:sphere
object:8
x:2,2
y:0,0
z:0,0
F_RGB:gray
F_SHAPE:cylinder
object:9
x:2,2
y:4,4
z:0,0
F_RGB:gray
F_SHAPE:cylinder
object:10
x:2,2
y:4,4
z:1,1
F_RGB:gray
F_SHAPE:cylinder
object:11
x:2,2
y:4,4
z:2,2
F_RGB:gray
F_SHAPE:cylinder
object:12
x:2,2
y:4,4
z:3,3
F_RGB:red
F_SHAPE:sphere
object:13
x:3,3
y:0,0
z:0,0
F_RGB:gray
F_SHAPE:cylinder
object:14
x:3,7
y:2,7
z:0,0
F_RGB:red
F_SHAPE:cylinder
object:15
x:3,3
y:4,4
z:0,0
F_RGB:gray
F_SHAPE:cylinder
object:16
x:3,3
y:4,4
z:1,1
F_RGB:gray
F_SHAPE:cylinder
object:17
x:3,3
y:4,4
z:2,2
F_RGB:gray
F_SHAPE:cylinder
object:18
x:3,3
y:4,4
z:3,3
F_RGB:red
F_SHAPE:sphere
object:19
x:4,4
y:0,0
z:0,0
F_RGB:gray
F_SHAPE:cylinder
object:20
x:4,4
y:4,4
z:0,0
F_RGB:gray
F_SHAPE:cylinder
object:21
x:4,4
y:4,4
z:1,1
F_RGB:gray
F_SHAPE:cylinder
object:22
x:4,4
y:4,4
z:2,2
F_RGB:gray
F_SHAPE:cylinder
object:23
x:4,4
y:4,4
z:3,3
F_RGB:red
F_SHAPE:sphere
object:24
x:5,5
y:0,0
z:0,0
F_RGB:gray
F_SHAPE:cylinder
object:25
x:5,5
y:4,4
z:0,0
F_RGB:gray
F_SHAPE:cylinder
object:26
x:5,5
y:4,4
z:1,1
F_RGB:gray
F_SHAPE:cylinder
object:27
x:5,5
y:4,4
z:2,2
F_RGB:gray
F_SHAPE:cylinder
object:28
x:5,5
y:4,4
z:3,3
F_RGB:red
F_SHAPE:sphere
object:29
x:6,6
y:4,4
z:0,0
F_RGB:gray
F_SHAPE:cylinder
object:30
x:6,6
y:4,4
z:1,1
F_RGB:gray
F_SHAPE:cylinder
object:31
x:6,6
y:4,4
z:2,2
F_RGB:gray
F_SHAPE:cylinder
object:32
x:6,6
y:4,4
z:3,3
F_RGB:red
F_SHAPE:sphere
object:33
x:7,7
y:4,4
z:0,0
F_RGB:gray
F_SHAPE:cylinder
object:34
x:7,7
y:4,4
z:1,1
F_RGB:gray
F_SHAPE:cylinder
object:35
x:7,7
y:4,4
z:2,2
F_RGB:gray
F_SHAPE:cylinder
object:36
x:7,7
y:4,4
z:3,3
F_RGB:red
F_SHAPE:sphere
object:37
x:0,0
y:4,4
z:2,2
F_RGB:gray
F_SHAPE:tower
object:38
x:1,1
y:4,4
z:2,2
F_RGB:gray
F_SHAPE:tower
object:39
x:2,2
y:4,4
z:2,2
F_RGB:gray
F_SHAPE:tower
object:40
x:3,3
y:4,4
z:2,2
F_RGB:gray
F_SHAPE:tower
object:41
x:4,4
y:4,4
z:2,2
F_RGB:gray
F_SHAPE:tower
object:42
x:5,5
y:4,4
z:2,2
F_RGB:gray
F_SHAPE:tower
object:43
x:6,6
y:4,4
z:2,2
F_RGB:gray
F_SHAPE:tower
object:44
x:7,7
y:4,4
z:2,2
F_RGB:gray
F_SHAPE:tower
object:gripper
x:5,7
y:7,7
z:7,7
