object:0
x:1,1
y:2,2
z:0,0
F_RGB:green
F_SHAPE:cube
object:1
x:1,1
y:2,2
z:1,1
F_RGB:green
F_SHAPE:cube
object:2
x:1,1
y:2,2
z:2,2
F_RGB:green
F_SHAPE:cube
object:3
x:1,1
y:2,2
z:3,3
F_RGB:yellow
F_SHAPE:prism
object:4
x:2,2
y:6,6
z:0,0
F_RGB:cyan
F_SHAPE:cube
object:5
x:2,2
y:6,6
z:1,1
F_RGB:cyan
F_SHAPE:cube
object:6
x:2,2
y:6,6
z:2,2
F_RGB:cyan
F_SHAPE:cube
object:7
x:2,2
y:6,6
z:3,3
F_RGB:yellow
F_SHAPE:prism
object:8
x:3,3
y:1,1
z:0,0
F_RGB:red
F_SHAPE:cube
object:9
x:5,5
y:6,6
z:0,0
F_RGB:gray
F_SHAPE:cube
object:10
x:6,6
y:1,1
z:0,0
F_RGB:blue
F_SHAPE:cube
object:11
x:6,6
y:3,3
z:0,0
F_RGB:magenta
F_SHAPE:cube
object:12
x:6,6
y:3,3
z:1,1
F_RGB:magenta
F_SHAPE:cube
object:13
x:6,6
y:3,3
z:2,2
F_RGB:magenta
F_SHAPE:cube
object:14
x:6,3
y:3,1
z:3,1
F_RGB:yellow
F_SHAPE:prism
object:15
x:1,1
y:2,2
z:2,2
F_RGB:green
F_SHAPE:tower
object:16
x:2,2
y:6,6
z:2,2
F_RGB:cyan
F_SHAPE:tower
object:17
x:6,6
y:3,3
z:2,2
F_RGB:magenta
F_SHAPE:tower
object:gripper
x:6,3
y:7,3
z:7,7
