object:0
x:3,3
y:3,3
z:0,0
F_RGB:blue
F_SHAPE:cube
object:1
x:3,3
y:3,3
z:1,1
F_RGB:red
F_SHAPE:cube
object:2
x:3,3
y:3,3
z:2,2
F_RGB:blue
F_SHAPE:cube
object:3
x:3,3
y:3,3
z:3,3
F_RGB:red
F_SHAPE:cube
object:4
x:3,3
y:3,3
z:4,7
F_RGB:yellow
F_SHAPE:sphere
object:5
x:5,5
y:1,1
z:0,0
F_RGB:cyan
F_SHAPE:cube
object:6
x:5,5
y:1,1
z:1,1
F_RGB:magenta
F_SHAPE:cube
object:7
x:6,6
y:4,4
z:0,0
F_RGB:red
F_SHAPE:cube
object:8
x:6,6
y:4,4
z:1,1
F_RGB:blue
F_SHAPE:cube
object:9
x:6,6
y:6,6
z:0,0
F_RGB:cyan
F_SHAPE:cube
object:10
x:6,6
y:6,6
z:1,1
F_RGB:magenta
F_SHAPE:cube
object:11
x:6,6
y:6,6
z:2,2
F_RGB:cyan
F_SHAPE:cube
object:12
x:6,6
y:6,6
z:3,3
F_RGB:magenta
F_SHAPE:cube
object:13
x:6,6
y:6,6
z:4,4
F_RGB:yellow
F_SHAPE:sphere
object:14
x:3,3
y:3,3
z:3,3
F_RGB:blue-red
F_SHAPE:tower
object:15
x:5,5
y:1,1
z:1,1
F_RGB:cyan-magenta
F_SHAPE:tower
object:16
x:6,6
y:4,4
z:1,1
F_RGB:red-blue
F_SHAPE:tower
object:17
x:6,6
y:6,6
z:3,3
F_RGB:cyan-magenta
F_SHAPE:tower
object:gripper
x:6,3
y:4,3
z:7,7
