object:0
x:0,0
y:0,0
z:0,0
F_RGB:black
F_SHAPE:cube
object:1
x:0,0
y:1,1
z:0,0
F_RGB:black
F_SHAPE:cube
object:2
x:0,0
y:2,2
z:0,0
F_RGB:black
F_SHAPE:cube
object:3
x:0,0
y:3,3
z:0,0
F_RGB:black
F_SHAPE:cube
object:4
x:0,0
y:4,4
z:0,0
F_RGB:black
F_SHAPE:cube
object:5
x:0,0
y:5,5
z:0,0
F_RGB:black
F_SHAPE:cube
object:6
x:0,0
y:6,6
z:0,0
F_RGB:black
F_SHAPE:cube
object:7
x:0,0
y:7,7
z:0,0
F_RGB:yellow
F_SHAPE:cube
object:8
x:0,6
y:7,4
z:1,1
F_RGB:cyan
F_SHAPE:sphere
object:9
x:1,1
y:7,7
z:0,0
F_RGB:green
F_SHAPE:cube
object:10
x:2,2
y:7,7
z:0,0
F_RGB:green
F_SHAPE:cube
object:11
x:3,3
y:7,7
z:0,0
F_RGB:green
F_SHAPE:cube
object:12
x:4,4
y:1,1
z:0,0
F_RGB:blue
F_SHAPE:cube
object:13
x:4,4
y:1,1
z:1,1
F_RGB:blue
F_SHAPE:sphere
object:14
x:4,4
y:4,4
z:0,0
F_RGB:black
F_SHAPE:cube
object:15
x:4,4
y:4,4
z:1,1
F_RGB:black
F_SHAPE:sphere
object:16
x:4,4
y:7,7
z:0,0
F_RGB:green
F_SHAPE:cube
object:17
x:5,5
y:7,7
z:0,0
F_RGB:green
F_SHAPE:cube
object:18
x:6,6
y:1,1
z:0,0
F_RGB:gray
F_SHAPE:cube
object:19
x:6,6
y:1,1
z:1,1
F_RGB:gray
F_SHAPE:sphere
object:20
x:6,6
y:4,4
z:0,0
F_RGB:cyan
F_SHAPE:cube
object:21
x:6,6
y:7,7
z:0,0
F_RGB:green
F_SHAPE:cube
object:22
x:7,7
y:7,7
z:0,0
F_RGB:green
F_SHAPE:cube
object:gripper
x:6,6
y:7,6
z:7,7
