object:0
x:1,1
y:1,1
z:0,0
F_RGB:yellow
F_SHAPE:cube
object:1
x:1,1
y:1,1
z:1,1
F_RGB:green
F_SHAPE:cube
object:2
x:1,1
y:1,1
z:2,2
F_RGB:gray
F_SHAPE:prism
object:3
x:1,1
y:5,5
z:0,0
F_RGB:yellow
F_SHAPE:cube
object:4
x:1,1
y:5,5
z:1,1
F_RGB:cyan
F_SHAPE:cube
object:5
x:1,1
y:5,5
z:2,2
F_RGB:gray
F_SHAPE:prism
object:6
x:4,4
y:1,1
z:0,0
F_RGB:yellow
F_SHAPE:cube
object:7
x:4,4
y:1,1
z:1,1
F_RGB:black
F_SHAPE:cube
object:8
x:4,4
y:1,1
z:2,2
F_RGB:gray
F_SHAPE:prism
object:9
x:4,4
y:5,5
z:0,0
F_RGB:yellow
F_SHAPE:cube
object:10
x:4,4
y:5,5
z:1,1
F_RGB:magenta
F_SHAPE:cube
object:11
x:4,4
y:5,5
z:2,2
F_RGB:gray
F_SHAPE:prism
object:12
x:6,6
y:2,2
z:0,0
F_RGB:green
F_SHAPE:cube
object:13
x:6,6
y:4,2
z:0,1
F_RGB:black
F_SHAPE:cube
object:14
x:6,6
y:5,5
z:0,0
F_RGB:blue
F_SHAPE:cube
object:15
x:1,1
y:1,1
z:1,1
F_RGB:yellow-green
F_SHAPE:tower
object:16
x:1,1
y:5,5
z:1,1
F_RGB:yellow-cyan
F_SHAPE:tower
object:17
x:4,4
y:1,1
z:1,1
F_RGB:yellow-black
F_SHAPE:tower
object:18
x:4,4
y:5,5
z:1,1
F_RGB:yellow-magenta
F_SHAPE:tower
object:gripper
x:6,6
y:3,2
z:7,7
