object:0
x:0,0
y:0,0
z:0,0
F_RGB:white
F_SHAPE:cylinder
object:1
x:0,0
y:0,0
z:1,1
F_RGB:white
F_SHAPE:cylinder
object:2
x:0,0
y:0,0
z:2,2
F_RGB:white
F_SHAPE:cylinder
object:3
x:0,0
y:0,0
z:3,3
F_RGB:cyan
F_SHAPE:prism
object:4
x:0,0
y:1,1
z:0,0
F_RGB:white
F_SHAPE:cylinder
object:5
x:0,0
y:1,1
z:1,1
F_RGB:white
F_SHAPE:cylinder
object:6
x:0,0
y:1,1
z:2,2
F_RGB:white
F_SHAPE:cylinder
object:7
x:0,0
y:1,1
z:3,3
F_RGB:magenta
F_SHAPE:prism
object:8
x:0,0
y:2,2
z:0,0
F_RGB:white
F_SHAPE:cylinder
object:9
x:0,0
y:2,2
z:1,1
F_RGB:white
F_SHAPE:cylinder
object:10
x:0,0
y:2,2
z:2,2
F_RGB:white
F_SHAPE:cylinder
object:11
x:0,0
y:2,2
z:3,3
F_RGB:cyan
F_SHAPE:prism
object:12
x:0,0
y:3,3
z:0,0
F_RGB:white
F_SHAPE:cylinder
object:13
x:0,0
y:3,3
z:1,1
F_RGB:white
F_SHAPE:cylinder
object:14
x:0,0
y:3,3
z:2,2
F_RGB:white
F_SHAPE:cylinder
object:15
x:0,0
y:3,3
z:3,3
F_RGB:magenta
F_SHAPE:prism
object:16
x:0,0
y:4,4
z:0,0
F_RGB:white
F_SHAPE:cylinder
object:17
x:0,0
y:4,4
z:1,1
F_RGB:white
F_SHAPE:cylinder
object:18
x:0,0
y:4,4
z:2,2
F_RGB:white
F_SHAPE:cylinder
object:19
x:0,0
y:4,4
z:3,3
F_RGB:cyan
F_SHAPE:prism
object:20
x:0,0
y:5,5
z:0,0
F_RGB:white
F_SHAPE:cylinder
object:21
x:0,0
y:5,5
z:1,1
F_RGB:white
F_SHAPE:cylinder
object:22
x:0,0
y:5,5
z:2,2
F_RGB:white
F_SHAPE:cylinder
object:23
x:0,0
y:5,5
z:3,3
F_RGB:magenta
F_SHAPE:prism
object:24
x:0,0
y:6,6
z:0,0
F_RGB:white
F_SHAPE:cylinder
object:25
x:0,0
y:6,6
z:1,1
F_RGB:white
F_SHAPE:cylinder
object:26
x:0,0
y:6,6
z:2,2
F_RGB:white
F_SHAPE:cylinder
object:27
x:0,0
y:6,6
z:3,3
F_RGB:cyan
F_SHAPE:prism
object:28
x:0,0
y:7,7
z:0,0
F_RGB:white
F_SHAPE:cylinder
object:29
x:0,0
y:7,7
z:1,1
F_RGB:white
F_SHAPE:cylinder
object:30
x:0,0
y:7,7
z:2,2
F_RGB:white
F_SHAPE:cylinder
object:31
x:0,0
y:7,7
z:3,3
F_RGB:magenta
F_SHAPE:prism
object:32
x:1,1
y:0,0
z:0,0
F_RGB:white
F_SHAPE:cylinder
object:33
x:1,1
y:1,1
z:0,0
F_RGB:white
F_SHAPE:cylinder
object:34
x:1,1
y:2,2
z:0,0
F_RGB:white
F_SHAPE:cylinder
object:35
x:1,1
y:3,3
z:0,0
F_RGB:white
F_SHAPE:cylinder
object:36
x:1,1
y:4,4
z:0,0
F_RGB:white
F_SHAPE:cylinder
object:37
x:1,1
y:5,5
z:0,0
F_RGB:blue
F_SHAPE:cylinder
object:38
x:1,1
y:5,5
z:1,1
F_RGB:gray
F_SHAPE:prism
object:39
x:1,1
y:6,6
z:0,0
F_RGB:green
F_SHAPE:cylinder
object:40
x:1,1
y:7,7
z:0,0
F_RGB:white
F_SHAPE:cylinder
object:41
x:1,1
y:7,7
z:1,1
F_RGB:white
F_SHAPE:cylinder
object:42
x:1,1
y:7,7
z:2,2
F_RGB:white
F_SHAPE:cylinder
object:43
x:1,1
y:7,7
z:3,3
F_RGB:cyan
F_SHAPE:prism
object:44
x:2,2
y:0,0
z:0,0
F_RGB:white
F_SHAPE:cylinder
object:45
x:2,2
y:1,1
z:0,0
F_RGB:white
F_SHAPE:cylinder
object:46
x:2,2
y:2,2
z:0,0
F_RGB:white
F_SHAPE:cylinder
object:47
x:2,2
y:3,3
z:0,0
F_RGB:white
F_SHAPE:cylinder
object:48
x:2,2
y:4,4
z:0,0
F_RGB:white
F_SHAPE:cylinder
object:49
x:2,2
y:5,5
z:0,0
F_RGB:white
F_SHAPE:cylinder
object:50
x:2,2
y:6,6
z:0,0
F_RGB:white
F_SHAPE:cylinder
object:51
x:2,2
y:7,7
z:0,0
F_RGB:white
F_SHAPE:cylinder
object:52
x:2,2
y:7,7
z:1,1
F_RGB:white
F_SHAPE:cylinder
object:53
x:2,2
y:7,7
z:2,2
F_RGB:white
F_SHAPE:cylinder
object:54
x:2,2
y:7,7
z:3,3
F_RGB:magenta
F_SHAPE:prism
object:55
x:3,3
y:0,0
z:0,0
F_RGB:white
F_SHAPE:cylinder
object:56
x:3,3
y:1,1
z:0,0
F_RGB:white
F_SHAPE:cylinder
object:57
x:3,3
y:2,2
z:0,0
F_RGB:white
F_SHAPE:cylinder
object:58
x:3,3
y:3,3
z:0,0
F_RGB:white
F_SHAPE:cylinder
object:59
x:3,3
y:4,4
z:0,0
F_RGB:white
F_SHAPE:cylinder
object:60
x:3,3
y:5,5
z:0,0
F_RGB:white
F_SHAPE:cylinder
object:61
x:3,3
y:6,6
z:0,0
F_RGB:white
F_SHAPE:cylinder
object:62
x:3,3
y:7,7
z:0,0
F_RGB:white
F_SHAPE:cylinder
object:63
x:3,3
y:7,7
z:1,1
F_RGB:white
F_SHAPE:cylinder
object:64
x:3,3
y:7,7
z:2,2
F_RGB:white
F_SHAPE:cylinder
object:65
x:3,3
y:7,7
z:3,3
F_RGB:cyan
F_SHAPE:prism
object:66
x:4,4
y:0,0
z:0,0
F_RGB:white
F_SHAPE:cylinder
object:67
x:4,4
y:1,1
z:0,0
F_RGB:green
F_SHAPE:cylinder
object:68
x:4,4
y:2,2
z:0,0
F_RGB:black
F_SHAPE:cylinder
object:69
x:4,4
y:2,2
z:1,1
F_RGB:gray
F_SHAPE:prism
object:70
x:4,4
y:3,3
z:0,0
F_RGB:white
F_SHAPE:cylinder
object:71
x:4,4
y:4,4
z:0,0
F_RGB:white
F_SHAPE:cylinder
object:72
x:4,4
y:5,5
z:0,0
F_RGB:white
F_SHAPE:cylinder
object:73
x:4,4
y:6,6
z:0,0
F_RGB:white
F_SHAPE:cylinder
object:74
x:4,4
y:7,7
z:0,0
F_RGB:white
F_SHAPE:cylinder
object:75
x:4,4
y:7,7
z:1,1
F_RGB:white
F_SHAPE:cylinder
object:76
x:4,4
y:7,7
z:2,2
F_RGB:white
F_SHAPE:cylinder
object:77
x:4,4
y:7,7
z:3,3
F_RGB:magenta
F_SHAPE:prism
object:78
x:5,5
y:0,0
z:0,0
F_RGB:white
F_SHAPE:cylinder
object:79
x:5,5
y:1,1
z:0,0
F_RGB:white
F_SHAPE:cylinder
object:80
x:5,5
y:2,2
z:0,0
F_RGB:white
F_SHAPE:cylinder
object:81
x:5,5
y:3,3
z:0,0
F_RGB:white
F_SHAPE:cylinder
object:82
x:5,5
y:4,4
z:0,0
F_RGB:white
F_SHAPE:cylinder
object:83
x:5,5
y:5,5
z:0,0
F_RGB:white
F_SHAPE:cylinder
object:84
x:5,5
y:6,6
z:0,0
F_RGB:white
F_SHAPE:cylinder
object:85
x:5,5
y:7,7
z:0,0
F_RGB:white
F_SHAPE:cylinder
object:86
x:5,5
y:7,7
z:1,1
F_RGB:white
F_SHAPE:cylinder
object:87
x:5,5
y:7,7
z:2,2
F_RGB:white
F_SHAPE:cylinder
object:88
x:5,5
y:7,7
z:3,3
F_RGB:cyan
F_SHAPE:prism
object:89
x:6,6
y:0,0
z:0,0
F_RGB:white
F_SHAPE:cylinder
object:90
x:6,6
y:1,1
z:0,0
F_RGB:white
F_SHAPE:cylinder
object:91
x:6,6
y:2,2
z:0,0
F_RGB:white
F_SHAPE:cylinder
object:92
x:6,6
y:3,3
z:0,0
F_RGB:white
F_SHAPE:cylinder
object:93
x:6,6
y:4,4
z:0,0
F_RGB:white
F_SHAPE:cylinder
object:94
x:6,7
y:5,0
z:0,1
F_RGB:yellow
F_SHAPE:cylinder
object:95
x:6,6
y:6,6
z:0,0
F_RGB:green
F_SHAPE:cylinder
object:96
x:6,6
y:6,6
z:1,1
F_RGB:gray
F_SHAPE:prism
object:97
x:6,6
y:7,7
z:0,0
F_RGB:white
F_SHAPE:cylinder
object:98
x:6,6
y:7,7
z:1,1
F_RGB:white
F_SHAPE:cylinder
object:99
x:6,6
y:7,7
z:2,2
F_RGB:white
F_SHAPE:cylinder
object:100
x:6,6
y:7,7
z:3,3
F_RGB:magenta
F_SHAPE:prism
object:101
x:7,7
y:0,0
z:0,0
F_RGB:white
F_SHAPE:cylinder
object:102
x:7,7
y:1,1
z:0,0
F_RGB:white
F_SHAPE:cylinder
object:103
x:7,7
y:2,2
z:0,0
F_RGB:white
F_SHAPE:cylinder
object:104
x:7,7
y:3,3
z:0,0
F_RGB:white
F_SHAPE:cylinder
object:105
x:7,7
y:4,4
z:0,0
F_RGB:white
F_SHAPE:cylinder
object:106
x:7,7
y:5,5
z:0,0
F_RGB:white
F_SHAPE:cylinder
object:107
x:7,7
y:6,6
z:0,0
F_RGB:white
F_SHAPE:cylinder
object:108
x:7,7
y:7,7
z:0,0
F_RGB:white
F_SHAPE:cylinder
object:109
x:7,7
y:7,7
z:1,1
F_RGB:white
F_SHAPE:cylinder
object:110
x:7,7
y:7,7
z:2,2
F_RGB:white
F_SHAPE:cylinder
object:111
x:7,7
y:7,7
z:3,3
F_RGB:cyan
F_SHAPE:prism
object:112
x:0,0
y:0,0
z:2,2
F_RGB:white
F_SHAPE:tower
object:113
x:0,0
y:1,1
z:2,2
F_RGB:white
F_SHAPE:tower
object:114
x:0,0
y:2,2
z:2,2
F_RGB:white
F_SHAPE:tower
object:115
x:0,0
y:3,3
z:2,2
F_RGB:white
F_SHAPE:tower
object:116
x:0,0
y:4,4
z:2,2
F_RGB:white
F_SHAPE:tower
object:117
x:0,0
y:5,5
z:2,2
F_RGB:white
F_SHAPE:tower
object:118
x:0,0
y:6,6
z:2,2
F_RGB:white
F_SHAPE:tower
object:119
x:0,0
y:7,7
z:2,2
F_RGB:white
F_SHAPE:tower
object:120
x:1,1
y:7,7
z:2,2
F_RGB:white
F_SHAPE:tower
object:121
x:2,2
y:7,7
z:2,2
F_RGB:white
F_SHAPE:tower
object:122
x:3,3
y:7,7
z:2,2
F_RGB:white
F_SHAPE:tower
object:123
x:4,4
y:7,7
z:2,2
F_RGB:white
F_SHAPE:tower
object:124
x:5,5
y:7,7
z:2,2
F_RGB:white
F_SHAPE:tower
object:125
x:6,6
y:7,7
z:2,2
F_RGB:white
F_SHAPE:tower
object:126
x:7,7
y:7,7
z:2,2
F_RGB:white
F_SHAPE:tower
object:gripper
x:2,5
y:7,4
z:7,7
