object:0
x:0,0
y:6,6
z:0,0
F_RGB:yellow
F_SHAPE:cylinder
object:1
x:2,2
y:1,1
z:0,0
F_RGB:black
F_SHAPE:cylinder
object:2
x:2,1
y:6,6
z:0,0
F_RGB:green
F_SHAPE:cylinder
object:3
x:4,4
y:4,4
z:0,0
F_RGB:cyan
F_SHAPE:prism
object:4
x:5,5
y:2,2
z:0,0
F_RGB:cyan
F_SHAPE:prism
object:5
x:6,6
y:6,6
z:0,0
F_RGB:blue
F_SHAPE:cylinder
object:gripper
x:4,1
y:6,6
z:7,6
