object:0
x:1,1
y:3,3
z:0,0
F_RGB:green
F_SHAPE:cube
object:1
x:1,1
y:3,3
z:1,1
F_RGB:red
F_SHAPE:cube
object:2
x:1,1
y:3,3
z:2,2
F_RGB:green
F_SHAPE:cube
object:3
x:1,1
y:4,4
z:0,0
F_RGB:green
F_SHAPE:cube
object:4
x:1,1
y:4,4
z:1,1
F_RGB:red
F_SHAPE:cube
object:5
x:1,1
y:4,4
z:2,2
F_RGB:green
F_SHAPE:cube
object:6
x:1,1
y:4,4
z:3,3
F_RGB:red
F_SHAPE:cube
object:7
x:1,4
y:4,2
z:4,1
F_RGB:yellow
F_SHAPE:sphere
object:8
x:1,1
y:5,5
z:0,0
F_RGB:green
F_SHAPE:cube
object:9
x:1,1
y:5,5
z:1,1
F_RGB:red
F_SHAPE:cube
object:10
x:1,1
y:5,5
z:2,2
F_RGB:green
F_SHAPE:cube
object:11
x:1,1
y:5,5
z:3,3
F_RGB:red
F_SHAPE:cube
object:12
x:1,1
y:5,5
z:4,4
F_RGB:green
F_SHAPE:cube
object:13
x:4,4
y:2,2
z:0,0
F_RGB:blue
F_SHAPE:cube
object:14
x:6,6
y:4,4
z:0,0
F_RGB:green
F_SHAPE:cube
object:15
x:6,6
y:4,4
z:1,1
F_RGB:red
F_SHAPE:cube
object:16
x:6,6
y:4,4
z:2,2
F_RGB:green
F_SHAPE:cube
object:17
x:6,6
y:4,4
z:3,3
F_RGB:red
F_SHAPE:cube
object:18
x:6,6
y:4,4
z:4,4
F_RGB:green
F_SHAPE:cube
object:19
x:6,6
y:5,5
z:0,0
F_RGB:green
F_SHAPE:cube
object:20
x:6,6
y:5,5
z:1,1
F_RGB:red
F_SHAPE:cube
object:21
x:6,6
y:5,5
z:2,2
F_RGB:green
F_SHAPE:cube
object:22
x:6,6
y:5,5
z:3,3
F_RGB:red
F_SHAPE:cube
object:23
x:6,6
y:6,6
z:0,0
F_RGB:green
F_SHAPE:cube
object:24
x:6,6
y:6,6
z:1,1
F_RGB:red
F_SHAPE:cube
object:25
x:6,6
y:6,6
z:2,2
F_RGB:green
F_SHAPE:cube
object:26
x:6,6
y:6,6
z:3,3
F_RGB:red
F_SHAPE:cube
object:27
x:6,6
y:6,6
z:4,4
F_RGB:green
F_SHAPE:cube
object:28
x:1,1
y:3,3
z:2,2
F_RGB:green-red
F_SHAPE:tower
object:29
x:1,1
y:4,4
z:3,3
F_RGB:green-red
F_SHAPE:tower
object:30
x:1,1
y:5,5
z:4,4
F_RGB:green-red
F_SHAPE:tower
object:31
x:6,6
y:4,4
z:4,4
F_RGB:green-red
F_SHAPE:tower
object:32
x:6,6
y:5,5
z:3,3
F_RGB:green-red
F_SHAPE:tower
object:33
x:6,6
y:6,6
z:4,4
F_RGB:green-red
F_SHAPE:tower
object:gripper
x:1,6
y:4,2
z:7,7
