object:0
x:0,0
y:0,0
z:0,0
F_RGB:gray
F_SHAPE:prism
object:1
x:0,0
y:1,1
z:0,0
F_RGB:gray
F_SHAPE:prism
object:2
x:0,0
y:2,2
z:0,0
F_RGB:gray
F_SHAPE:prism
object:3
x:0,0
y:3,3
z:0,0
F_RGB:gray
F_SHAPE:prism
object:4
x:0,0
y:4,4
z:0,0
F_RGB:gray
F_SHAPE:prism
object:5
x:0,0
y:5,5
z:0,0
F_RGB:gray
F_SHAPE:prism
object:6
x:0,0
y:6,6
z:0,0
F_RGB:gray
F_SHAPE:prism
object:7
x:0,0
y:7,7
z:0,0
F_RGB:gray
F_SHAPE:prism
object:8
x:1,1
y:0,0
z:0,0
F_RGB:gray
F_SHAPE:prism
object:9
x:1,1
y:1,1
z:0,0
F_RGB:gray
F_SHAPE:prism
object:10
x:1,1
y:2,2
z:0,0
F_RGB:gray
F_SHAPE:prism
object:11
x:1,1
y:3,3
z:0,0
F_RGB:gray
F_SHAPE:prism
object:12
x:1,1
y:4,4
z:0,0
F_RGB:gray
F_SHAPE:prism
object:13
x:1,1
y:5,5
z:0,0
F_RGB:gray
F_SHAPE:prism
object:14
x:1,1
y:6,6
z:0,0
F_RGB:gray
F_SHAPE:prism
object:15
x:1,1
y:7,7
z:0,0
F_RGB:gray
F_SHAPE:prism
object:16
x:2,2
y:0,0
z:0,0
F_RGB:gray
F_SHAPE:prism
object:17
x:2,2
y:1,1
z:0,0
F_RGB:gray
F_SHAPE:prism
object:18
x:2,2
y:2,2
z:0,0
F_RGB:gray
F_SHAPE:prism
object:19
x:2,2
y:3,3
z:0,0
F_RGB:gray
F_SHAPE:prism
object:20
x:2,2
y:4,4
z:0,0
F_RGB:gray
F_SHAPE:prism
object:21
x:2,2
y:5,5
z:0,0
F_RGB:gray
F_SHAPE:prism
object:22
x:2,2
y:6,6
z:0,0
F_RGB:gray
F_SHAPE:prism
object:23
x:2,2
y:7,7
z:0,0
F_RGB:gray
F_SHAPE:prism
object:24
x:3,3
y:3,3
z:0,0
F_RGB:red
F_SHAPE:cube
object:25
x:3,3
y:3,3
z:1,1
F_RGB:yellow
F_SHAPE:cube
object:26
x:3,3
y:3,3
z:2,2
F_RGB:red
F_SHAPE:cube
object:27
x:3,3
y:3,3
z:3,3
F_RGB:yellow
F_SHAPE:cube
object:28
x:4,4
y:0,0
z:0,0
F_RGB:yellow
F_SHAPE:cube
object:29
x:4,4
y:0,0
z:1,1
F_RGB:yellow
F_SHAPE:cube
object:30
x:4,4
y:0,0
z:2,2
F_RGB:yellow
F_SHAPE:prism
object:31
x:5,5
y:5,5
z:0,0
F_RGB:blue
F_SHAPE:cube
object:32
x:5,5
y:5,5
z:1,1
F_RGB:red
F_SHAPE:cube
object:33
x:5,5
y:5,5
z:2,2
F_RGB:blue
F_SHAPE:cube
object:34
x:5,5
y:5,5
z:3,3
F_RGB:red
F_SHAPE:cube
object:35
x:5,5
y:7,7
z:0,0
F_RGB:red
F_SHAPE:cube
object:36
x:5,5
y:7,7
z:1,1
F_RGB:blue
F_SHAPE:cube
object:37
x:5,5
y:7,7
z:2,2
F_RGB:red
F_SHAPE:cube
object:38
x:5,5
y:7,5
z:3,4
F_RGB:blue
F_SHAPE:cube
object:39
x:6,6
y:1,1
z:0,0
F_RGB:cyan
F_SHAPE:cube
object:40
x:6,6
y:1,1
z:1,1
F_RGB:magenta
F_SHAPE:cube
object:41
x:6,6
y:1,1
z:2,2
F_RGB:cyan
F_SHAPE:cube
object:42
x:6,6
y:1,1
z:3,3
F_RGB:magenta
F_SHAPE:cube
object:43
x:7,7
y:0,0
z:0,0
F_RGB:green
F_SHAPE:prism
object:44
x:7,7
y:1,1
z:0,0
F_RGB:green
F_SHAPE:prism
object:45
x:7,7
y:2,2
z:0,0
F_RGB:green
F_SHAPE:prism
object:46
x:7,7
y:3,3
z:0,0
F_RGB:green
F_SHAPE:prism
object:47
x:7,7
y:4,4
z:0,0
F_RGB:green
F_SHAPE:prism
object:48
x:7,7
y:5,5
z:0,0
F_RGB:green
F_SHAPE:prism
object:49
x:7,7
y:6,6
z:0,0
F_RGB:green
F_SHAPE:prism
object:50
x:7,7
y:7,7
z:0,0
F_RGB:green
F_SHAPE:prism
object:51
x:3,3
y:3,3
z:3,3
F_RGB:red-yellow
F_SHAPE:tower
object:52
x:4,4
y:0,0
z:1,1
F_RGB:yellow
F_SHAPE:tower
object:53
x:5,5
y:5,5
z:3,3
F_RGB:blue-red
F_SHAPE:tower
object:54
x:5,5
y:7,7
z:3,3
F_RGB:red-blue
F_SHAPE:tower
object:55
x:6,6
y:1,1
z:3,3
F_RGB:cyan-magenta
F_SHAPE:tower
object:gripper
x:5,5
y:4,5
z:7,7
