object:0
x:0,0
y:0,0
z:0,0
F_RGB:red
F_SHAPE:cylinder
object:1
x:0,0
y:0,0
z:1,1
F_RGB:white
F_SHAPE:prism
object:2
x:0,0
y:1,1
z:0,0
F_RGB:red
F_SHAPE:cylinder
object:3
x:0,0
y:2,2
z:0,0
F_RGB:red
F_SHAPE:cylinder
object:4
x:0,0
y:3,3
z:0,0
F_RGB:red
F_SHAPE:cylinder
object:5
x:0,0
y:3,3
z:1,1
F_RGB:yellow
F_SHAPE:cylinder
object:6
x:0,0
y:4,4
z:0,0
F_RGB:red
F_SHAPE:cylinder
object:7
x:0,0
y:5,5
z:0,0
F_RGB:red
F_SHAPE:cylinder
object:8
x:0,0
y:6,6
z:0,0
F_RGB:red
F_SHAPE:cylinder
object:9
x:0,0
y:7,7
z:0,0
F_RGB:red
F_SHAPE:cylinder
object:10
x:0,0
y:7,7
z:1,1
F_RGB:yellow
F_SHAPE:prism
object:11
x:2,2
y:3,3
z:0,0
F_RGB:blue
F_SHAPE:cylinder
object:12
x:2,2
y:3,3
z:1,1
F_RGB:green
F_SHAPE:prism
object:13
x:4,4
y:5,5
z:0,0
F_RGB:yellow
F_SHAPE:cylinder
object:14
x:4,4
y:5,6
z:1,1
F_RGB:red
F_SHAPE:prism
object:15
x:4,4
y:6,6
z:0,0
F_RGB:yellow
F_SHAPE:cylinder
object:16
x:4,4
y:7,7
z:0,0
F_RGB:red
F_SHAPE:cylinder
object:17
x:7,7
y:0,0
z:0,0
F_RGB:green
F_SHAPE:cylinder
object:18
x:7,7
y:1,1
z:0,0
F_RGB:green
F_SHAPE:cylinder
object:19
x:7,7
y:2,2
z:0,0
F_RGB:green
F_SHAPE:cylinder
object:20
x:7,7
y:3,3
z:0,0
F_RGB:green
F_SHAPE:cylinder
object:21
x:7,7
y:3,3
z:1,1
F_RGB:white
F_SHAPE:prism
object:22
x:7,7
y:4,4
z:0,0
F_RGB:green
F_SHAPE:cylinder
object:23
x:7,7
y:4,4
z:1,1
F_RGB:blue
F_SHAPE:prism
object:24
x:7,7
y:5,5
z:0,0
F_RGB:green
F_SHAPE:cylinder
object:25
x:7,7
y:6,6
z:0,0
F_RGB:green
F_SHAPE:cylinder
object:26
x:7,7
y:7,7
z:0,0
F_RGB:green
F_SHAPE:cylinder
object:27
x:0,0
y:3,3
z:1,1
F_RGB:red-yellow
F_SHAPE:tower
object:gripper
x:4,5
y:5,7
z:7,7
