object:0
x:1,1
y:3,3
z:0,0
F_RGB:blue
F_SHAPE:cylinder
object:1
x:1,1
y:3,3
z:1,1
F_RGB:blue
F_SHAPE:cylinder
object:2
x:1,1
y:3,3
z:2,2
F_RGB:green
F_SHAPE:cylinder
object:3
x:1,1
y:3,3
z:3,3
F_RGB:green
F_SHAPE:cylinder
object:4
x:1,1
y:3,3
z:4,4
F_RGB:yellow
F_SHAPE:prism
object:5
x:3,3
y:1,1
z:0,0
F_RGB:blue
F_SHAPE:cylinder
object:6
x:3,3
y:1,1
z:1,1
F_RGB:green
F_SHAPE:cylinder
object:7
x:4,4
y:5,5
z:0,0
F_RGB:red
F_SHAPE:cylinder
object:8
x:4,4
y:5,5
z:1,1
F_RGB:red
F_SHAPE:cylinder
object:9
x:4,4
y:5,5
z:2,2
F_RGB:green
F_SHAPE:cylinder
object:10
x:4,4
y:5,5
z:3,3
F_RGB:green
F_SHAPE:cylinder
object:11
x:4,6
y:5,6
z:4,2
F_RGB:yellow
F_SHAPE:prism
object:12
x:5,5
y:3,3
z:0,0
F_RGB:red
F_SHAPE:cylinder
object:13
x:5,5
y:3,3
z:1,1
F_RGB:green
F_SHAPE:cylinder
object:14
x:6,6
y:6,6
z:0,0
F_RGB:yellow
F_SHAPE:cylinder
object:15
x:6,6
y:6,6
z:1,1
F_RGB:green
F_SHAPE:cylinder
object:16
x:1,1
y:3,3
z:3,3
F_RGB:blue-green
F_SHAPE:tower
object:17
x:3,3
y:1,1
z:1,1
F_RGB:blue-green
F_SHAPE:tower
object:18
x:4,4
y:5,5
z:3,3
F_RGB:red-green
F_SHAPE:tower
object:19
x:5,5
y:3,3
z:1,1
F_RGB:red-green
F_SHAPE:tower
object:20
x:6,6
y:6,6
z:1,1
F_RGB:yellow-green
F_SHAPE:tower
object:gripper
x:4,6
y:5,6
z:7,7
