object:0
x:3,3
y:3,3
z:0,0
F_RGB:green
F_SHAPE:sphere
object:1
x:3,3
y:5,5
z:0,0
F_RGB:green
F_SHAPE:sphere
object:2
x:5,5
y:2,2
z:0,0
F_RGB:green
F_SHAPE:sphere
object:3
x:5,5
y:5,5
z:4,0
F_RGB:green
F_SHAPE:sphere
object:gripper
x:5,5
y:5,5
z:4,7
