object:0
x:3,3
y:3,3
z:0,0
F_RGB:yellow
F_SHAPE:cube
object:1
x:3,7
y:3,5
z:1,0
F_RGB:blue
F_SHAPE:cube
object:2
x:6,6
y:5,5
z:0,0
F_RGB:red
F_SHAPE:cube
object:3
x:6,6
y:5,5
z:1,1
F_RGB:green
F_SHAPE:sphere
object:4
x:3,3
y:3,3
z:1,1
F_RGB:yellow-blue
F_SHAPE:tower
object:gripper
x:6,7
y:5,5
z:4,7
