object:0
x:3,3
y:3,3
z:0,0
F_RGB:magenta
F_SHAPE:sphere
object:1
x:5,5
y:1,1
z:0,0
F_RGB:red
F_SHAPE:cube
object:2
x:5,3
y:1,5
z:1,0
F_RGB:magenta
F_SHAPE:cube
object:3
x:5,5
y:1,1
z:1,1
F_RGB:red-magenta
F_SHAPE:tower
object:gripper
x:5,2
y:1,3
z:6,5
