object:0
x:0,0
y:0,0
z:0,0
F_RGB:green
F_SHAPE:cylinder
object:1
x:0,0
y:0,0
z:1,1
F_RGB:green
F_SHAPE:cylinder
object:2
x:0,0
y:0,0
z:2,2
F_RGB:blue
F_SHAPE:cylinder
object:3
x:0,0
y:0,0
z:3,3
F_RGB:yellow
F_SHAPE:cylinder
object:4
x:0,5
y:0,5
z:4,0
F_RGB:gray
F_SHAPE:cylinder
object:5
x:0,0
y:7,7
z:0,0
F_RGB:black
F_SHAPE:cylinder
object:6
x:0,0
y:7,7
z:1,1
F_RGB:black
F_SHAPE:cylinder
object:7
x:0,0
y:7,7
z:2,2
F_RGB:blue
F_SHAPE:cylinder
object:8
x:0,0
y:7,7
z:3,3
F_RGB:yellow
F_SHAPE:cylinder
object:9
x:2,2
y:4,4
z:0,0
F_RGB:blue
F_SHAPE:cylinder
object:10
x:2,2
y:5,5
z:0,0
F_RGB:gray
F_SHAPE:cylinder
object:11
x:2,2
y:6,6
z:0,0
F_RGB:blue
F_SHAPE:cylinder
object:12
x:5,5
y:4,4
z:0,0
F_RGB:blue
F_SHAPE:cylinder
object:13
x:5,5
y:4,4
z:1,1
F_RGB:green
F_SHAPE:cylinder
object:14
x:5,5
y:6,6
z:0,0
F_RGB:blue
F_SHAPE:cylinder
object:15
x:7,7
y:0,0
z:0,0
F_RGB:white
F_SHAPE:cylinder
object:16
x:7,7
y:0,0
z:1,1
F_RGB:white
F_SHAPE:cylinder
object:17
x:7,7
y:0,0
z:2,2
F_RGB:blue
F_SHAPE:cylinder
object:18
x:7,7
y:0,0
z:3,3
F_RGB:yellow
F_SHAPE:cylinder
object:19
x:7,7
y:7,7
z:0,0
F_RGB:white
F_SHAPE:cylinder
object:20
x:7,7
y:7,7
z:1,1
F_RGB:white
F_SHAPE:cylinder
object:21
x:7,7
y:7,7
z:2,2
F_RGB:green
F_SHAPE:cylinder
object:22
x:7,7
y:7,7
z:3,3
F_RGB:blue
F_SHAPE:cylinder
object:23
x:0,0
y:0,0
z:4,4
F_RGB:green-blue-yellow-gray
F_SHAPE:tower
object:24
x:0,0
y:7,7
z:3,3
F_RGB:black-blue-yellow
F_SHAPE:tower
object:25
x:5,5
y:4,4
z:1,1
F_RGB:blue-green
F_SHAPE:tower
object:26
x:7,7
y:0,0
z:3,3
F_RGB:white-blue-yellow
F_SHAPE:tower
object:27
x:7,7
y:7,7
z:3,3
F_RGB:white-green-blue
F_SHAPE:tower
object:gripper
x:0,3
y:4,7
z:5,7
