object:0
x:0,0
y:0,0
z:0,0
F_RGB:green
F_SHAPE:cube
object:1
x:0,0
y:7,7
z:0,0
F_RGB:black
F_SHAPE:cube
object:2
x:3,0
y:3,0
z:0,1
F_RGB:green
F_SHAPE:cube
object:3
x:3,3
y:4,4
z:0,0
F_RGB:black
F_SHAPE:cube
object:4
x:4,4
y:3,3
z:0,0
F_RGB:yellow
F_SHAPE:cube
object:5
x:4,4
y:4,4
z:0,0
F_RGB:blue
F_SHAPE:cube
object:6
x:7,7
y:0,0
z:0,0
F_RGB:yellow
F_SHAPE:cube
object:7
x:7,7
y:7,7
z:0,0
F_RGB:blue
F_SHAPE:cube
object:gripper
x:3,0
y:7,0
z:7,6
