object:0
x:3,3
y:3,3
z:0,0
F_RGB:blue
F_SHAPE:cylinder
object:1
x:6,6
y:5,5
z:0,0
F_RGB:red
F_SHAPE:cylinder
object:2
x:6,6
y:5,5
z:1,1
F_RGB:green
F_SHAPE:prism
object:3
x:7,3
y:5,3
z:0,1
F_RGB:blue
F_SHAPE:cylinder
object:gripper
x:7,6
y:5,5
z:7,4
