object:0
x:2,2
y:3,3
z:0,0
F_RGB:green
F_SHAPE:cylinder
object:1
x:2,2
y:3,3
z:1,1
F_RGB:yellow
F_SHAPE:cylinder
object:2
x:2,2
y:5,5
z:0,0
F_RGB:green
F_SHAPE:cylinder
object:3
x:2,2
y:5,5
z:1,1
F_RGB:blue
F_SHAPE:cylinder
object:4
x:4,4
y:3,3
z:0,0
F_RGB:yellow
F_SHAPE:cylinder
object:5
x:4,4
y:3,3
z:1,1
F_RGB:red
F_SHAPE:cylinder
object:6
x:5,5
y:1,1
z:0,0
F_RGB:gray
F_SHAPE:cylinder
object:7
x:5,5
y:1,6
z:1,2
F_RGB:blue
F_SHAPE:cylinder
object:8
x:5,5
y:6,6
z:0,0
F_RGB:yellow
F_SHAPE:cylinder
object:9
x:5,5
y:6,6
z:1,1
F_RGB:blue
F_SHAPE:cylinder
object:10
x:2,2
y:3,3
z:1,1
F_RGB:green-yellow
F_SHAPE:tower
object:11
x:2,2
y:5,5
z:1,1
F_RGB:green-blue
F_SHAPE:tower
object:12
x:4,4
y:3,3
z:1,1
F_RGB:yellow-red
F_SHAPE:tower
object:13
x:5,5
y:1,1
z:1,1
F_RGB:gray-blue
F_SHAPE:tower
object:14
x:5,5
y:6,6
z:1,1
F_RGB:yellow-blue
F_SHAPE:tower
object:gripper
x:7,5
y:5,6
z:7,7
