object:0
x:3,3
y:3,3
z:0,0
F_RGB:blue
F_SHAPE:cylinder
object:1
x:3,3
y:3,3
z:1,1
F_RGB:yellow
F_SHAPE:cylinder
object:2
x:3,3
y:4,4
z:0,0
F_RGB:blue
F_SHAPE:cylinder
object:3
x:6,6
y:5,5
z:0,0
F_RGB:blue
F_SHAPE:cylinder
object:4
x:6,3
y:5,2
z:1,0
F_RGB:blue
F_SHAPE:cylinder
object:5
x:6,6
y:6,6
z:0,0
F_RGB:blue
F_SHAPE:cylinder
object:6
x:6,6
y:6,6
z:1,1
F_RGB:yellow
F_SHAPE:cylinder
object:7
x:3,3
y:3,3
z:1,1
F_RGB:blue-yellow
F_SHAPE:tower
object:8
x:6,6
y:5,5
z:1,1
F_RGB:blue
F_SHAPE:tower
object:9
x:6,6
y:6,6
z:1,1
F_RGB:blue-yellow
F_SHAPE:tower
object:gripper
x:6,3
y:5,6
z:7,7
