object:0
x:1,1
y:1,1
z:0,0
F_RGB:red
F_SHAPE:cube
object:1
x:1,1
y:1,1
z:1,1
F_RGB:gray
F_SHAPE:prism
object:2
x:1,1
y:6,6
z:0,0
F_RGB:red
F_SHAPE:cube
object:3
x:1,1
y:6,6
z:1,1
F_RGB:gray
F_SHAPE:prism
object:4
x:2,2
y:6,6
z:0,0
F_RGB:green
F_SHAPE:cube
object:5
x:5,5
y:6,6
z:0,0
F_RGB:red
F_SHAPE:cube
object:6
x:5,5
y:6,6
z:1,1
F_RGB:gray
F_SHAPE:prism
object:7
x:6,6
y:1,1
z:0,0
F_RGB:red
F_SHAPE:cube
object:8
x:6,6
y:1,1
z:1,1
F_RGB:gray
F_SHAPE:prism
object:9
x:6,6
y:6,6
z:0,0
F_RGB:blue
F_SHAPE:cube
object:10
x:7,2
y:1,6
z:0,1
F_RGB:gray
F_SHAPE:cube
object:gripper
x:2,2
y:6,6
z:7,7
