object:0
x:1,1
y:3,3
z:0,0
F_RGB:green
F_SHAPE:sphere
object:1
x:1,5
y:5,5
z:0,1
F_RGB:black
F_SHAPE:sphere
object:2
x:3,3
y:3,3
z:0,0
F_RGB:yellow
F_SHAPE:cube
object:3
x:3,3
y:5,5
z:0,0
F_RGB:yellow
F_SHAPE:sphere
object:4
x:5,5
y:3,3
z:0,0
F_RGB:blue
F_SHAPE:sphere
object:5
x:5,5
y:5,5
z:0,0
F_RGB:blue
F_SHAPE:cube
object:gripper
x:7,5
y:6,5
z:7,7
