object:0
x:1,1
y:4,4
z:0,0
F_RGB:yellow
F_SHAPE:cube
object:1
x:1,1
y:4,4
z:4,4
F_RGB:blue
F_SHAPE:cube
object:2
x:4,4
y:4,4
z:0,0
F_RGB:yellow
F_SHAPE:cube
object:3
x:4,4
y:4,4
z:1,1
F_RGB:green
F_SHAPE:cube
object:4
x:5,5
y:1,1
z:0,0
F_RGB:yellow
F_SHAPE:cube
object:5
x:5,5
y:1,1
z:1,1
F_RGB:cyan
F_SHAPE:cube
object:6
x:5,5
y:6,6
z:0,0
F_RGB:yellow
F_SHAPE:cube
object:7
x:5,5
y:6,6
z:1,1
F_RGB:red
F_SHAPE:cube
object:8
x:1,1
y:4,4
z:4,4
F_RGB:yellow-blue
F_SHAPE:tower
object:9
x:4,4
y:4,4
z:1,1
F_RGB:yellow-green
F_SHAPE:tower
object:10
x:5,5
y:1,1
z:1,1
F_RGB:yellow-cyan
F_SHAPE:tower
object:11
x:5,5
y:6,6
z:1,1
F_RGB:yellow-red
F_SHAPE:tower
object:gripper
x:1,2
y:4,1
z:4,7
