object:0
x:3,5
y:3,5
z:0,1
F_RGB:black
F_SHAPE:cylinder
object:1
x:3,3
y:5,5
z:0,0
F_RGB:blue
F_SHAPE:cylinder
object:2
x:5,5
y:3,3
z:0,0
F_RGB:yellow
F_SHAPE:cylinder
object:3
x:5,5
y:5,5
z:0,0
F_RGB:green
F_SHAPE:cylinder
object:gripper
x:6,5
y:7,5
z:7,7
