object:0
x:2,3
y:3,3
z:0,0
F_RGB:black
F_SHAPE:cube
object:1
x:3,3
y:7,7
z:0,0
F_RGB:black
F_SHAPE:sphere
object:2
x:6,6
y:3,3
z:0,0
F_RGB:yellow
F_SHAPE:sphere
object:3
x:6,6
y:7,7
z:0,0
F_RGB:yellow
F_SHAPE:sphere
object:gripper
x:2,6
y:3,5
z:6,7
