object:0
x:2,2
y:1,1
z:0,0
F_RGB:red
F_SHAPE:cylinder
object:1
x:3,6
y:1,4
z:0,4
F_RGB:blue
F_SHAPE:cylinder
object:2
x:3,3
y:3,3
z:0,0
F_RGB:yellow
F_SHAPE:cylinder
object:3
x:3,3
y:3,3
z:1,1
F_RGB:cyan
F_SHAPE:cylinder
object:4
x:3,3
y:3,3
z:2,2
F_RGB:magenta
F_SHAPE:prism
object:5
x:3,3
y:6,6
z:0,0
F_RGB:yellow
F_SHAPE:cylinder
object:6
x:3,3
y:6,6
z:1,1
F_RGB:cyan
F_SHAPE:cylinder
object:7
x:3,3
y:6,6
z:2,2
F_RGB:magenta
F_SHAPE:prism
object:8
x:4,4
y:1,1
z:0,0
F_RGB:green
F_SHAPE:cylinder
object:9
x:5,5
y:1,1
z:0,0
F_RGB:red
F_SHAPE:cylinder
object:10
x:6,6
y:4,4
z:0,0
F_RGB:gray
F_SHAPE:cylinder
object:11
x:6,6
y:4,4
z:1,1
F_RGB:red
F_SHAPE:cylinder
object:12
x:6,6
y:4,4
z:2,2
F_RGB:white
F_SHAPE:cylinder
object:13
x:6,6
y:4,4
z:3,3
F_RGB:red
F_SHAPE:cylinder
object:14
x:3,3
y:3,3
z:1,1
F_RGB:yellow-cyan
F_SHAPE:tower
object:15
x:3,3
y:6,6
z:1,1
F_RGB:yellow-cyan
F_SHAPE:tower
object:16
x:6,6
y:4,4
z:3,3
F_RGB:gray-red-white
F_SHAPE:tower
object:gripper
x:6,6
y:6,4
z:7,7
