object:0
x:0,0
y:0,0
z:0,0
F_RGB:yellow
F_SHAPE:cube
object:1
x:0,0
y:0,0
z:1,1
F_RGB:yellow
F_SHAPE:cube
object:2
x:0,0
y:0,0
z:2,2
F_RGB:yellow
F_SHAPE:cube
object:3
x:0,0
y:0,0
z:3,3
F_RGB:yellow
F_SHAPE:cube
object:4
x:0,0
y:1,1
z:0,0
F_RGB:yellow
F_SHAPE:cube
object:5
x:0,0
y:1,1
z:1,1
F_RGB:yellow
F_SHAPE:cube
object:6
x:0,0
y:1,1
z:2,2
F_RGB:yellow
F_SHAPE:cube
object:7
x:0,0
y:1,1
z:3,3
F_RGB:yellow
F_SHAPE:cube
object:8
x:0,0
y:2,2
z:0,0
F_RGB:yellow
F_SHAPE:cube
object:9
x:0,0
y:2,2
z:1,1
F_RGB:yellow
F_SHAPE:cube
object:10
x:0,0
y:2,2
z:2,2
F_RGB:yellow
F_SHAPE:cube
object:11
x:0,0
y:2,2
z:3,3
F_RGB:yellow
F_SHAPE:cube
object:12
x:0,0
y:3,3
z:0,0
F_RGB:yellow
F_SHAPE:cube
object:13
x:0,0
y:3,3
z:1,1
F_RGB:yellow
F_SHAPE:cube
object:14
x:0,0
y:3,3
z:2,2
F_RGB:yellow
F_SHAPE:cube
object:15
x:0,0
y:3,3
z:3,3
F_RGB:yellow
F_SHAPE:cube
object:16
x:0,0
y:4,4
z:0,0
F_RGB:yellow
F_SHAPE:cube
object:17
x:0,0
y:4,4
z:1,1
F_RGB:yellow
F_SHAPE:cube
object:18
x:0,0
y:4,4
z:2,2
F_RGB:yellow
F_SHAPE:cube
object:19
x:0,0
y:4,4
z:3,3
F_RGB:yellow
F_SHAPE:cube
object:20
x:0,0
y:5,5
z:0,0
F_RGB:yellow
F_SHAPE:cube
object:21
x:0,0
y:5,5
z:1,1
F_RGB:yellow
F_SHAPE:cube
object:22
x:0,0
y:5,5
z:2,2
F_RGB:yellow
F_SHAPE:cube
object:23
x:0,0
y:5,5
z:3,3
F_RGB:yellow
F_SHAPE:cube
object:24
x:0,0
y:6,6
z:0,0
F_RGB:yellow
F_SHAPE:cube
object:25
x:0,0
y:6,6
z:1,1
F_RGB:yellow
F_SHAPE:cube
object:26
x:0,0
y:6,6
z:2,2
F_RGB:yellow
F_SHAPE:cube
object:27
x:0,0
y:6,6
z:3,3
F_RGB:yellow
F_SHAPE:cube
object:28
x:0,0
y:7,7
z:0,0
F_RGB:yellow
F_SHAPE:cube
object:29
x:0,0
y:7,7
z:1,1
F_RGB:yellow
F_SHAPE:cube
object:30
x:0,0
y:7,7
z:2,2
F_RGB:yellow
F_SHAPE:cube
object:31
x:0,0
y:7,7
z:3,3
F_RGB:yellow
F_SHAPE:cube
object:32
x:1,1
y:0,0
z:0,0
F_RGB:green
F_SHAPE:cube
object:33
x:1,1
y:1,1
z:0,0
F_RGB:green
F_SHAPE:cube
object:34
x:1,1
y:2,2
z:0,0
F_RGB:green
F_SHAPE:cube
object:35
x:1,1
y:3,3
z:0,0
F_RGB:green
F_SHAPE:cube
object:36
x:1,1
y:4,4
z:0,0
F_RGB:green
F_SHAPE:cube
object:37
x:1,1
y:5,5
z:0,0
F_RGB:green
F_SHAPE:cube
object:38
x:1,1
y:6,6
z:0,0
F_RGB:green
F_SHAPE:cube
object:39
x:1,1
y:7,7
z:0,0
F_RGB:yellow
F_SHAPE:cube
object:40
x:1,1
y:7,7
z:1,1
F_RGB:yellow
F_SHAPE:cube
object:41
x:1,1
y:7,7
z:2,2
F_RGB:yellow
F_SHAPE:cube
object:42
x:1,1
y:7,7
z:3,3
F_RGB:yellow
F_SHAPE:cube
object:43
x:2,2
y:0,0
z:0,0
F_RGB:green
F_SHAPE:cube
object:44
x:2,2
y:1,1
z:0,0
F_RGB:green
F_SHAPE:cube
object:45
x:2,2
y:2,2
z:0,0
F_RGB:green
F_SHAPE:cube
object:46
x:2,2
y:2,2
z:1,1
F_RGB:green
F_SHAPE:cube
object:47
x:2,2
y:3,3
z:0,0
F_RGB:green
F_SHAPE:cube
object:48
x:2,2
y:4,4
z:0,0
F_RGB:green
F_SHAPE:cube
object:49
x:2,2
y:5,5
z:0,0
F_RGB:green
F_SHAPE:cube
object:50
x:2,2
y:6,6
z:0,0
F_RGB:green
F_SHAPE:cube
object:51
x:2,2
y:7,7
z:0,0
F_RGB:yellow
F_SHAPE:cube
object:52
x:2,2
y:7,7
z:1,1
F_RGB:yellow
F_SHAPE:cube
object:53
x:2,2
y:7,7
z:2,2
F_RGB:yellow
F_SHAPE:cube
object:54
x:2,2
y:7,7
z:3,3
F_RGB:yellow
F_SHAPE:cube
object:55
x:3,3
y:0,0
z:0,0
F_RGB:white
F_SHAPE:cube
object:56
x:3,3
y:1,1
z:0,0
F_RGB:green
F_SHAPE:cube
object:57
x:3,3
y:2,2
z:0,0
F_RGB:white
F_SHAPE:cube
object:58
x:3,3
y:3,3
z:0,0
F_RGB:green
F_SHAPE:cube
object:59
x:3,3
y:4,4
z:0,0
F_RGB:green
F_SHAPE:cube
object:60
x:3,3
y:4,4
z:1,1
F_RGB:green
F_SHAPE:cube
object:61
x:3,3
y:4,4
z:2,2
F_RGB:green
F_SHAPE:cube
object:62
x:3,3
y:4,4
z:3,3
F_RGB:green
F_SHAPE:cube
object:63
x:3,3
y:5,5
z:0,0
F_RGB:green
F_SHAPE:cube
object:64
x:3,3
y:6,6
z:0,0
F_RGB:green
F_SHAPE:cube
object:65
x:3,3
y:7,7
z:0,0
F_RGB:yellow
F_SHAPE:cube
object:66
x:3,3
y:7,7
z:1,1
F_RGB:yellow
F_SHAPE:cube
object:67
x:3,3
y:7,7
z:2,2
F_RGB:yellow
F_SHAPE:cube
object:68
x:3,3
y:7,7
z:3,3
F_RGB:yellow
F_SHAPE:cube
object:69
x:4,4
y:0,0
z:0,0
F_RGB:white
F_SHAPE:cube
object:70
x:4,4
y:1,1
z:0,0
F_RGB:white
F_SHAPE:cube
object:71
x:4,4
y:2,2
z:0,0
F_RGB:white
F_SHAPE:cube
object:72
x:4,4
y:3,3
z:0,0
F_RGB:green
F_SHAPE:cube
object:73
x:4,4
y:4,4
z:0,0
F_RGB:green
F_SHAPE:cube
object:74
x:4,4
y:4,4
z:1,1
F_RGB:green
F_SHAPE:cube
object:75
x:4,4
y:4,4
z:2,2
F_RGB:green
F_SHAPE:cube
object:76
x:4,4
y:4,4
z:3,3
F_RGB:green
F_SHAPE:cube
object:77
x:4,4
y:5,5
z:0,0
F_RGB:green
F_SHAPE:cube
object:78
x:4,4
y:6,6
z:0,0
F_RGB:green
F_SHAPE:cube
object:79
x:4,4
y:7,7
z:0,0
F_RGB:yellow
F_SHAPE:cube
object:80
x:4,4
y:7,7
z:1,1
F_RGB:yellow
F_SHAPE:cube
object:81
x:4,4
y:7,7
z:2,2
F_RGB:yellow
F_SHAPE:cube
object:82
x:4,4
y:7,7
z:3,3
F_RGB:yellow
F_SHAPE:cube
object:83
x:5,5
y:0,0
z:0,0
F_RGB:white
F_SHAPE:cube
object:84
x:5,5
y:1,1
z:0,0
F_RGB:white
F_SHAPE:cube
object:85
x:5,5
y:2,2
z:0,0
F_RGB:white
F_SHAPE:cube
object:86
x:5,5
y:3,3
z:0,0
F_RGB:green
F_SHAPE:cube
object:87
x:5,5
y:4,4
z:0,0
F_RGB:green
F_SHAPE:cube
object:88
x:5,5
y:5,5
z:0,0
F_RGB:green
F_SHAPE:cube
object:89
x:5,5
y:5,5
z:1,1
F_RGB:green
F_SHAPE:cube
object:90
x:5,5
y:5,5
z:2,2
F_RGB:green
F_SHAPE:cube
object:91
x:5,5
y:6,6
z:0,0
F_RGB:green
F_SHAPE:cube
object:92
x:5,5
y:7,7
z:0,0
F_RGB:yellow
F_SHAPE:cube
object:93
x:5,5
y:7,7
z:1,1
F_RGB:yellow
F_SHAPE:cube
object:94
x:5,5
y:7,7
z:2,2
F_RGB:yellow
F_SHAPE:cube
object:95
x:5,5
y:7,7
z:3,3
F_RGB:yellow
F_SHAPE:cube
object:96
x:6,6
y:0,0
z:0,0
F_RGB:white
F_SHAPE:cube
object:97
x:6,6
y:1,1
z:0,0
F_RGB:white
F_SHAPE:cube
object:98
x:6,6
y:2,2
z:0,0
F_RGB:white
F_SHAPE:cube
object:99
x:6,6
y:3,3
z:0,0
F_RGB:white
F_SHAPE:cube
object:100
x:6,6
y:4,4
z:0,0
F_RGB:white
F_SHAPE:cube
object:101
x:6,6
y:5,5
z:0,0
F_RGB:green
F_SHAPE:cube
object:102
x:6,6
y:6,6
z:0,0
F_RGB:green
F_SHAPE:cube
object:103
x:6,6
y:7,7
z:0,0
F_RGB:yellow
F_SHAPE:cube
object:104
x:6,6
y:7,7
z:1,1
F_RGB:yellow
F_SHAPE:cube
object:105
x:6,6
y:7,7
z:2,2
F_RGB:yellow
F_SHAPE:cube
object:106
x:6,6
y:7,7
z:3,3
F_RGB:yellow
F_SHAPE:cube
object:107
x:7,7
y:0,7
z:0,4
F_RGB:black
F_SHAPE:cube
object:108
x:7,7
y:1,1
z:0,0
F_RGB:white
F_SHAPE:cube
object:109
x:7,7
y:2,2
z:0,0
F_RGB:white
F_SHAPE:cube
object:110
x:7,7
y:3,3
z:0,0
F_RGB:white
F_SHAPE:cube
object:111
x:7,7
y:4,4
z:0,0
F_RGB:white
F_SHAPE:cube
object:112
x:7,7
y:5,5
z:0,0
F_RGB:green
F_SHAPE:cube
object:113
x:7,7
y:6,6
z:0,0
F_RGB:green
F_SHAPE:cube
object:114
x:7,7
y:7,7
z:0,0
F_RGB:yellow
F_SHAPE:cube
object:115
x:7,7
y:7,7
z:1,1
F_RGB:yellow
F_SHAPE:cube
object:116
x:7,7
y:7,7
z:2,2
F_RGB:yellow
F_SHAPE:cube
object:117
x:7,7
y:7,7
z:3,3
F_RGB:yellow
F_SHAPE:cube
object:118
x:0,0
y:0,0
z:3,3
F_RGB:yellow
F_SHAPE:tower
object:119
x:0,0
y:1,1
z:3,3
F_RGB:yellow
F_SHAPE:tower
object:120
x:0,0
y:2,2
z:3,3
F_RGB:yellow
F_SHAPE:tower
object:121
x:0,0
y:3,3
z:3,3
F_RGB:yellow
F_SHAPE:tower
object:122
x:0,0
y:4,4
z:3,3
F_RGB:yellow
F_SHAPE:tower
object:123
x:0,0
y:5,5
z:3,3
F_RGB:yellow
F_SHAPE:tower
object:124
x:0,0
y:6,6
z:3,3
F_RGB:yellow
F_SHAPE:tower
object:125
x:0,0
y:7,7
z:3,3
F_RGB:yellow
F_SHAPE:tower
object:126
x:1,1
y:7,7
z:3,3
F_RGB:yellow
F_SHAPE:tower
object:127
x:2,2
y:2,2
z:1,1
F_RGB:green
F_SHAPE:tower
object:128
x:2,2
y:7,7
z:3,3
F_RGB:yellow
F_SHAPE:tower
object:129
x:3,3
y:4,4
z:3,3
F_RGB:green
F_SHAPE:tower
object:130
x:3,3
y:7,7
z:3,3
F_RGB:yellow
F_SHAPE:tower
object:131
x:4,4
y:4,4
z:3,3
F_RGB:green
F_SHAPE:tower
object:132
x:4,4
y:7,7
z:3,3
F_RGB:yellow
F_SHAPE:tower
object:133
x:5,5
y:5,5
z:2,2
F_RGB:green
F_SHAPE:tower
object:134
x:5,5
y:7,7
z:3,3
F_RGB:yellow
F_SHAPE:tower
object:135
x:6,6
y:7,7
z:3,3
F_RGB:yellow
F_SHAPE:tower
object:136
x:7,7
y:7,7
z:3,3
F_RGB:yellow
F_SHAPE:tower
object:gripper
x:6,7
y:4,7
z:7,7
