object:0
x:3,3
y:3,3
z:0,0
F_RGB:black
F_SHAPE:cube
object:1
x:3,3
y:3,3
z:1,1
F_RGB:blue
F_SHAPE:cube
object:2
x:3,3
y:6,6
z:0,0
F_RGB:black
F_SHAPE:cube
object:3
x:3,3
y:6,6
z:1,1
F_RGB:green
F_SHAPE:cube
object:4
x:6,6
y:3,3
z:0,0
F_RGB:black
F_SHAPE:cube
object:5
x:6,6
y:3,3
z:1,1
F_RGB:gray
F_SHAPE:cube
object:6
x:6,6
y:5,5
z:0,0
F_RGB:black
F_SHAPE:cube
object:7
x:6,3
y:5,6
z:1,2
F_RGB:gray
F_SHAPE:sphere
object:8
x:3,3
y:3,3
z:1,1
F_RGB:black-blue
F_SHAPE:tower
object:9
x:3,3
y:6,6
z:1,1
F_RGB:black-green
F_SHAPE:tower
object:10
x:6,6
y:3,3
z:1,1
F_RGB:black-gray
F_SHAPE:tower
object:gripper
x:5,3
y:7,6
z:7,6
