object:0
x:3,3
y:3,3
z:0,0
F_RGB:red
F_SHAPE:cube
object:1
x:3,3
y:5,5
z:0,0
F_RGB:red
F_SHAPE:prism
object:2
x:3,3
y:7,7
z:0,0
F_RGB:red
F_SHAPE:cube
object:3
x:6,6
y:3,3
z:0,0
F_RGB:blue
F_SHAPE:cube
object:4
x:6,4
y:5,5
z:0,0
F_RGB:blue
F_SHAPE:prism
object:5
x:6,6
y:7,7
z:0,0
F_RGB:blue
F_SHAPE:cube
object:gripper
x:2,4
y:7,5
z:7,7
