object:0
x:3,3
y:3,3
z:0,0
F_RGB:blue
F_SHAPE:cube
object:1
x:3,3
y:3,3
z:1,1
F_RGB:gray
F_SHAPE:cube
object:2
x:3,3
y:3,3
z:2,2
F_RGB:blue
F_SHAPE:cube
object:3
x:3,3
y:3,3
z:3,3
F_RGB:gray
F_SHAPE:cube
object:4
x:4,4
y:0,0
z:0,0
F_RGB:black
F_SHAPE:sphere
object:5
x:5,5
y:4,4
z:0,0
F_RGB:green
F_SHAPE:sphere
object:6
x:5,5
y:6,6
z:0,0
F_RGB:black
F_SHAPE:cube
object:7
x:6,5
y:2,6
z:0,1
F_RGB:black
F_SHAPE:sphere
object:8
x:7,7
y:5,5
z:0,0
F_RGB:green
F_SHAPE:cube
object:9
x:3,3
y:3,3
z:3,3
F_RGB:blue-gray
F_SHAPE:tower
object:gripper
x:3,5
y:7,6
z:7,7
