object:0
x:1,1
y:1,1
z:0,0
F_RGB:green
F_SHAPE:cylinder
object:1
x:1,1
y:1,1
z:1,1
F_RGB:yellow
F_SHAPE:cylinder
object:2
x:1,1
y:2,2
z:0,0
F_RGB:green
F_SHAPE:cylinder
object:3
x:1,1
y:5,5
z:0,0
F_RGB:green
F_SHAPE:cylinder
object:4
x:1,1
y:6,6
z:0,0
F_RGB:green
F_SHAPE:cylinder
object:5
x:1,1
y:6,6
z:1,1
F_RGB:blue
F_SHAPE:cylinder
object:6
x:2,2
y:1,1
z:0,0
F_RGB:green
F_SHAPE:cylinder
object:7
x:2,2
y:2,2
z:0,0
F_RGB:green
F_SHAPE:cylinder
object:8
x:2,2
y:5,5
z:0,0
F_RGB:green
F_SHAPE:cylinder
object:9
x:2,2
y:6,6
z:0,0
F_RGB:green
F_SHAPE:cylinder
object:10
x:5,5
y:1,1
z:0,0
F_RGB:yellow
F_SHAPE:cylinder
object:11
x:5,5
y:2,2
z:0,0
F_RGB:yellow
F_SHAPE:cylinder
object:12
x:5,5
y:5,5
z:0,0
F_RGB:green
F_SHAPE:cylinder
object:13
x:5,5
y:6,6
z:0,0
F_RGB:green
F_SHAPE:cylinder
object:14
x:6,6
y:1,1
z:0,0
F_RGB:yellow
F_SHAPE:cylinder
object:15
x:6,6
y:1,1
z:1,1
F_RGB:blue
F_SHAPE:cylinder
object:16
x:6,6
y:2,2
z:0,0
F_RGB:yellow
F_SHAPE:cylinder
object:17
x:6,6
y:5,5
z:0,0
F_RGB:green
F_SHAPE:cylinder
object:18
x:6,6
y:6,6
z:0,0
F_RGB:green
F_SHAPE:cylinder
object:19
x:6,1
y:6,1
z:1,2
F_RGB:black
F_SHAPE:cylinder
object:20
x:1,1
y:1,1
z:1,1
F_RGB:green-yellow
F_SHAPE:tower
object:21
x:1,1
y:6,6
z:1,1
F_RGB:green-blue
F_SHAPE:tower
object:22
x:6,6
y:1,1
z:1,1
F_RGB:yellow-blue
F_SHAPE:tower
object:23
x:6,6
y:6,6
z:1,1
F_RGB:green-black
F_SHAPE:tower
object:gripper
x:3,3
y:7,7
z:7,4
