object:0
x:3,3
y:3,3
z:0,0
F_RGB:red
F_SHAPE:cylinder
object:1
x:3,3
y:3,3
z:1,1
F_RGB:blue
F_SHAPE:cylinder
object:2
x:3,3
y:6,6
z:0,0
F_RGB:red
F_SHAPE:cylinder
object:3
x:3,3
y:6,6
z:4,1
F_RGB:blue
F_SHAPE:cylinder
object:4
x:6,6
y:3,3
z:0,0
F_RGB:red
F_SHAPE:cylinder
object:5
x:6,6
y:3,3
z:1,1
F_RGB:blue
F_SHAPE:prism
object:6
x:6,6
y:6,6
z:0,0
F_RGB:red
F_SHAPE:cylinder
object:7
x:6,6
y:6,6
z:1,1
F_RGB:red
F_SHAPE:prism
object:8
x:3,3
y:3,3
z:1,1
F_RGB:red-blue
F_SHAPE:tower
object:9
x:3,3
y:6,6
z:4,4
F_RGB:red-blue
F_SHAPE:tower
object:gripper
x:3,3
y:6,6
z:4,7
