object:0
x:3,3
y:3,3
z:0,0
F_RGB:red
F_SHAPE:cube
object:1
x:3,3
y:5,5
z:0,2
F_RGB:red
F_SHAPE:prism
object:2
x:6,6
y:3,3
z:0,0
F_RGB:red
F_SHAPE:prism
object:3
x:6,6
y:5,5
z:0,0
F_RGB:red
F_SHAPE:cube
object:gripper
x:4,3
y:3,5
z:4,2
