object:0
x:3,3
y:3,3
z:0,0
F_RGB:blue
F_SHAPE:cube
object:1
x:3,3
y:3,3
z:1,4
F_RGB:red
F_SHAPE:cube
object:2
x:3,3
y:4,4
z:0,0
F_RGB:gray
F_SHAPE:cube
object:3
x:3,3
y:5,5
z:0,0
F_RGB:gray
F_SHAPE:cube
object:4
x:3,3
y:6,6
z:0,0
F_RGB:blue
F_SHAPE:cube
object:5
x:3,3
y:6,6
z:1,1
F_RGB:red
F_SHAPE:cube
object:6
x:6,6
y:3,3
z:0,0
F_RGB:blue
F_SHAPE:cube
object:7
x:6,6
y:3,3
z:1,1
F_RGB:red
F_SHAPE:sphere
object:8
x:6,6
y:4,4
z:0,0
F_RGB:gray
F_SHAPE:cube
object:9
x:6,6
y:5,5
z:0,0
F_RGB:green
F_SHAPE:cube
object:10
x:6,6
y:5,5
z:1,1
F_RGB:gray
F_SHAPE:cube
object:11
x:6,6
y:6,6
z:0,0
F_RGB:blue
F_SHAPE:cube
object:12
x:6,6
y:6,6
z:1,1
F_RGB:red
F_SHAPE:sphere
object:13
x:3,3
y:3,3
z:1,1
F_RGB:blue-red
F_SHAPE:tower
object:14
x:3,3
y:6,6
z:1,1
F_RGB:blue-red
F_SHAPE:tower
object:15
x:6,6
y:5,5
z:1,1
F_RGB:green-gray
F_SHAPE:tower
object:gripper
x:4,3
y:7,3
z:7,4
